Avance6/IDLE_out/s2p.vcd
$date
	Sun May 31 20:39:51 2020
$end
$version
	Icarus Verilog
$end
$timescale
	100ps
$end
$scope module BUF $end
$var wire 1 ! A $end
$var wire 1 " Y $end
$upscope $end
$scope module DFFSR $end
$var wire 1 # C $end
$var wire 1 $ D $end
$var wire 1 % R $end
$var wire 1 & S $end
$var reg 1 ' Q $end
$upscope $end
$scope module tb $end
$var wire 1 ( reset_L $end
$var wire 1 ) clk_4f $end
$var wire 1 * clk_32f $end
$var wire 8 + IDLE_out_e [7:0] $end
$var wire 8 , IDLE_out_c [7:0] $end
$var wire 8 - IDL [7:0] $end
$scope module s2p_con $end
$var wire 1 ( reset_L $end
$var wire 1 ) clk_4f $end
$var wire 1 * clk_32f $end
$var wire 8 . IDL [7:0] $end
$var reg 8 / IDLE_out [7:0] $end
$var reg 1 0 active $end
$var reg 4 1 bc_cnt [3:0] $end
$var reg 8 2 temp [7:0] $end
$upscope $end
$scope module s2p_est $end
$var wire 1 ( reset_L $end
$var wire 1 ) clk_4f $end
$var wire 1 * clk_32f $end
$var wire 4 3 bc_cnt [3:0] $end
$var wire 1 4 active $end
$var wire 1 5 _049_ $end
$var wire 1 6 _048_ $end
$var wire 1 7 _047_ $end
$var wire 1 8 _046_ $end
$var wire 1 9 _045_ $end
$var wire 1 : _044_ $end
$var wire 1 ; _043_ $end
$var wire 1 < _042_ $end
$var wire 1 = _041_ $end
$var wire 1 > _040_ $end
$var wire 1 ? _039_ $end
$var wire 1 @ _038_ $end
$var wire 1 A _037_ $end
$var wire 1 B _036_ $end
$var wire 1 C _035_ $end
$var wire 1 D _034_ $end
$var wire 1 E _033_ $end
$var wire 1 F _032_ $end
$var wire 1 G _031_ $end
$var wire 1 H _030_ $end
$var wire 1 I _029_ $end
$var wire 1 J _028_ $end
$var wire 1 K _027_ $end
$var wire 1 L _026_ $end
$var wire 1 M _025_ $end
$var wire 1 N _024_ $end
$var wire 1 O _023_ $end
$var wire 1 P _022_ $end
$var wire 1 Q _021_ $end
$var wire 1 R _020_ $end
$var wire 1 S _019_ $end
$var wire 1 T _018_ $end
$var wire 1 U _017_ $end
$var wire 1 V _016_ $end
$var wire 1 W _015_ $end
$var wire 1 X _014_ $end
$var wire 1 Y _013_ $end
$var wire 1 Z _012_ $end
$var wire 1 [ _011_ $end
$var wire 1 \ _010_ $end
$var wire 1 ] _009_ $end
$var wire 1 ^ _008_ $end
$var wire 1 _ _007_ $end
$var wire 1 ` _006_ $end
$var wire 1 a _005_ $end
$var wire 1 b _004_ $end
$var wire 1 c _003_ $end
$var wire 4 d _002_ [3:0] $end
$var wire 1 e _001_ $end
$var wire 8 f _000_ [7:0] $end
$var wire 8 g IDLE_out [7:0] $end
$var wire 8 h IDL [7:0] $end
$scope module _050_ $end
$var wire 1 c Y $end
$var wire 1 ( A $end
$upscope $end
$scope module _051_ $end
$var wire 1 i A $end
$var wire 1 b Y $end
$upscope $end
$scope module _052_ $end
$var wire 1 j A $end
$var wire 1 a Y $end
$upscope $end
$scope module _053_ $end
$var wire 1 a A $end
$var wire 1 b B $end
$var wire 1 ` Y $end
$upscope $end
$scope module _054_ $end
$var wire 1 ` A $end
$var wire 1 _ Y $end
$var wire 1 4 B $end
$upscope $end
$scope module _055_ $end
$var wire 1 _ A $end
$var wire 1 c B $end
$var wire 1 e Y $end
$upscope $end
$scope module _056_ $end
$var wire 1 k A $end
$var wire 1 l B $end
$var wire 1 ^ Y $end
$upscope $end
$scope module _057_ $end
$var wire 1 m A $end
$var wire 1 ] Y $end
$upscope $end
$scope module _058_ $end
$var wire 1 n A $end
$var wire 1 \ Y $end
$upscope $end
$scope module _059_ $end
$var wire 1 \ A $end
$var wire 1 ] B $end
$var wire 1 [ Y $end
$upscope $end
$scope module _060_ $end
$var wire 1 [ A $end
$var wire 1 ^ B $end
$var wire 1 Z Y $end
$upscope $end
$scope module _061_ $end
$var wire 1 o A $end
$var wire 1 Y Y $end
$upscope $end
$scope module _062_ $end
$var wire 1 p A $end
$var wire 1 X Y $end
$var wire 1 ( B $end
$upscope $end
$scope module _063_ $end
$var wire 1 X A $end
$var wire 1 Y B $end
$var wire 1 W Y $end
$upscope $end
$scope module _064_ $end
$var wire 1 W A $end
$var wire 1 Z B $end
$var wire 1 V Y $end
$upscope $end
$scope module _065_ $end
$var wire 1 q A $end
$var wire 1 U Y $end
$upscope $end
$scope module _066_ $end
$var wire 1 r A $end
$var wire 1 U B $end
$var wire 1 T Y $end
$upscope $end
$scope module _067_ $end
$var wire 1 T A $end
$var wire 1 V B $end
$var wire 1 S Y $end
$upscope $end
$scope module _068_ $end
$var wire 1 S A $end
$var wire 1 R Y $end
$upscope $end
$scope module _069_ $end
$var wire 1 R A $end
$var wire 1 s B $end
$var wire 1 t Y $end
$upscope $end
$scope module _070_ $end
$var wire 1 u A $end
$var wire 1 Q Y $end
$upscope $end
$scope module _071_ $end
$var wire 1 v A $end
$var wire 1 P Y $end
$upscope $end
$scope module _072_ $end
$var wire 1 P A $end
$var wire 1 Q B $end
$var wire 1 O Y $end
$upscope $end
$scope module _073_ $end
$var wire 1 P A $end
$var wire 1 Q B $end
$var wire 1 N Y $end
$upscope $end
$scope module _074_ $end
$var wire 1 N A $end
$var wire 1 M Y $end
$upscope $end
$scope module _075_ $end
$var wire 1 M A $end
$var wire 1 O B $end
$var wire 1 L Y $end
$upscope $end
$scope module _076_ $end
$var wire 1 L A $end
$var wire 1 R B $end
$var wire 1 w Y $end
$upscope $end
$scope module _077_ $end
$var wire 1 M A $end
$var wire 1 a B $end
$var wire 1 K Y $end
$upscope $end
$scope module _078_ $end
$var wire 1 N A $end
$var wire 1 x B $end
$var wire 1 J Y $end
$upscope $end
$scope module _079_ $end
$var wire 1 J A $end
$var wire 1 K B $end
$var wire 1 I Y $end
$upscope $end
$scope module _080_ $end
$var wire 1 I A $end
$var wire 1 R B $end
$var wire 1 y Y $end
$upscope $end
$scope module _081_ $end
$var wire 1 J A $end
$var wire 1 H Y $end
$upscope $end
$scope module _082_ $end
$var wire 1 H A $end
$var wire 1 b B $end
$var wire 1 G Y $end
$upscope $end
$scope module _083_ $end
$var wire 1 J A $end
$var wire 1 z B $end
$var wire 1 F Y $end
$upscope $end
$scope module _084_ $end
$var wire 1 F A $end
$var wire 1 G B $end
$var wire 1 E Y $end
$upscope $end
$scope module _085_ $end
$var wire 1 E A $end
$var wire 1 R B $end
$var wire 1 { Y $end
$upscope $end
$scope module _086_ $end
$var wire 1 S A $end
$var wire 1 c B $end
$var wire 1 D Y $end
$upscope $end
$scope module _087_ $end
$var wire 1 D A $end
$var wire 1 | B $end
$var wire 1 C Y $end
$upscope $end
$scope module _088_ $end
$var wire 1 V A $end
$var wire 1 B Y $end
$upscope $end
$scope module _089_ $end
$var wire 1 } A $end
$var wire 1 c B $end
$var wire 1 A Y $end
$upscope $end
$scope module _090_ $end
$var wire 1 A A $end
$var wire 1 ~ B $end
$var wire 1 @ Y $end
$upscope $end
$scope module _091_ $end
$var wire 1 @ A $end
$var wire 1 _ B $end
$var wire 1 ? Y $end
$upscope $end
$scope module _092_ $end
$var wire 1 ? A $end
$var wire 1 B B $end
$var wire 1 > Y $end
$upscope $end
$scope module _093_ $end
$var wire 1 > A $end
$var wire 1 C B $end
$var wire 1 !" Y $end
$upscope $end
$scope module _094_ $end
$var wire 1 ? A $end
$var wire 1 = Y $end
$upscope $end
$scope module _095_ $end
$var wire 1 = A $end
$var wire 1 V B $end
$var wire 1 < Y $end
$upscope $end
$scope module _096_ $end
$var wire 1 D A $end
$var wire 1 "" B $end
$var wire 1 ; Y $end
$upscope $end
$scope module _097_ $end
$var wire 1 ; A $end
$var wire 1 < B $end
$var wire 1 #" Y $end
$upscope $end
$scope module _098_ $end
$var wire 1 D A $end
$var wire 1 $" B $end
$var wire 1 : Y $end
$upscope $end
$scope module _099_ $end
$var wire 1 : A $end
$var wire 1 < B $end
$var wire 1 %" Y $end
$upscope $end
$scope module _100_ $end
$var wire 1 D A $end
$var wire 1 &" B $end
$var wire 1 9 Y $end
$upscope $end
$scope module _101_ $end
$var wire 1 9 A $end
$var wire 1 < B $end
$var wire 1 '" Y $end
$upscope $end
$scope module _102_ $end
$var wire 1 D A $end
$var wire 1 (" B $end
$var wire 1 8 Y $end
$upscope $end
$scope module _103_ $end
$var wire 1 8 A $end
$var wire 1 < B $end
$var wire 1 )" Y $end
$upscope $end
$scope module _104_ $end
$var wire 1 D A $end
$var wire 1 *" B $end
$var wire 1 7 Y $end
$upscope $end
$scope module _105_ $end
$var wire 1 7 A $end
$var wire 1 < B $end
$var wire 1 +" Y $end
$upscope $end
$scope module _106_ $end
$var wire 1 D A $end
$var wire 1 ," B $end
$var wire 1 6 Y $end
$upscope $end
$scope module _107_ $end
$var wire 1 6 A $end
$var wire 1 < B $end
$var wire 1 -" Y $end
$upscope $end
$scope module _108_ $end
$var wire 1 D A $end
$var wire 1 ." B $end
$var wire 1 5 Y $end
$upscope $end
$scope module _109_ $end
$var wire 1 5 A $end
$var wire 1 < B $end
$var wire 1 /" Y $end
$upscope $end
$scope module _110_ $end
$var wire 1 0" D $end
$var wire 1 * C $end
$var reg 1 1" Q $end
$upscope $end
$scope module _111_ $end
$var wire 1 2" D $end
$var wire 1 * C $end
$var reg 1 3" Q $end
$upscope $end
$scope module _112_ $end
$var wire 1 4" D $end
$var wire 1 * C $end
$var reg 1 5" Q $end
$upscope $end
$scope module _113_ $end
$var wire 1 6" D $end
$var wire 1 * C $end
$var reg 1 7" Q $end
$upscope $end
$scope module _114_ $end
$var wire 1 8" D $end
$var wire 1 * C $end
$var reg 1 9" Q $end
$upscope $end
$scope module _115_ $end
$var wire 1 :" D $end
$var wire 1 * C $end
$var reg 1 ;" Q $end
$upscope $end
$scope module _116_ $end
$var wire 1 <" D $end
$var wire 1 * C $end
$var reg 1 =" Q $end
$upscope $end
$scope module _117_ $end
$var wire 1 >" D $end
$var wire 1 * C $end
$var reg 1 ?" Q $end
$upscope $end
$scope module _118_ $end
$var wire 1 e D $end
$var wire 1 * C $end
$var reg 1 4 Q $end
$upscope $end
$scope module _119_ $end
$var wire 1 @" D $end
$var wire 1 * C $end
$var reg 1 A" Q $end
$upscope $end
$scope module _120_ $end
$var wire 1 B" D $end
$var wire 1 * C $end
$var reg 1 C" Q $end
$upscope $end
$scope module _121_ $end
$var wire 1 D" D $end
$var wire 1 * C $end
$var reg 1 E" Q $end
$upscope $end
$scope module _122_ $end
$var wire 1 F" D $end
$var wire 1 * C $end
$var reg 1 G" Q $end
$upscope $end
$upscope $end
$scope module test $end
$var wire 8 H" IDLE_out_c [7:0] $end
$var wire 8 I" IDLE_out_e [7:0] $end
$var reg 8 J" IDL [7:0] $end
$var reg 1 * clk_32f $end
$var reg 1 ) clk_4f $end
$var reg 1 ( reset_L $end
$upscope $end
$upscope $end
$enddefinitions $end
#0
$dumpvars
b0 J"
bx I"
bx H"
xG"
0F"
xE"
0D"
xC"
0B"
xA"
0@"
x?"
0>"
x="
0<"
x;"
0:"
x9"
08"
x7"
06"
x5"
04"
x3"
02"
x1"
00"
0/"
x."
0-"
x,"
0+"
x*"
0)"
x("
0'"
x&"
0%"
x$"
0#"
x""
0!"
0~
0}
x|
0{
xz
0y
xx
0w
xv
xu
0t
xs
0r
0q
0p
0o
0n
0m
0l
0k
xj
xi
b0 h
bx g
b0 f
0e
b0 d
1c
xb
xa
x`
x_
1^
1]
1\
0[
0Z
1Y
1X
0W
1V
1U
1T
0S
1R
xQ
xP
xO
xN
xM
xL
xK
xJ
xI
xH
xG
xF
xE
0D
1C
0B
0A
1@
0?
1>
1=
0<
1;
1:
19
18
17
16
15
x4
bx 3
b0 2
bx 1
x0
bx /
b0 .
b0 -
bx ,
bx +
0*
0)
0(
x'
z&
z%
z$
z#
z"
z!
$end
#10
1I
0K
1E
1L
1_
1M
0F
1Z
0O
0N
0H
0`
0G
1J
0T
0^
1Q
1P
1a
1b
0Y
0|
0""
0$"
0&"
0("
0*"
0,"
0."
0u
0s
0v
0x
0j
0z
0i
1}
1r
1p
1o
1l
1k
00
b0 1
b0 ,
b0 /
b0 H"
01"
03"
05"
07"
09"
0;"
0="
b0 +
b0 g
b0 I"
0?"
04
0A"
0C"
0E"
b0 3
0G"
b10111100 -
b10111100 .
b10111100 h
b10111100 J"
1*
#20
0*
#30
1*
#40
0*
#50
1*
#60
0*
#70
1*
#80
0*
1)
#90
1T
0U
1~
0}
0r
1q
b1111100 -
b1111100 .
b1111100 h
b1111100 J"
1*
#100
0*
#110
1*
#120
0*
#130
1*
#140
0*
#150
1*
#160
0*
0)
#170
1*
#180
0*
#190
1*
#200
0*
#210
1*
#220
0*
#230
1*
#240
1B
0V
0@
1W
1D
1A
0X
0c
b1111100 2
1(
0*
1)
#250
1@"
b1 d
1t
0D
0R
1S
1@
0A
0T
1U
0~
1}
1r
0q
b10111100 2
b10111100 -
b10111100 .
b10111100 h
b10111100 J"
1*
#260
0*
#270
1B"
1w
0L
1O
0@"
b10 d
0t
0Q
1u
1s
b1 3
1A"
b1 1
1*
#280
0*
#290
1@"
b11 d
1t
1Q
0P
0u
0s
1v
b10 1
0A"
b10 3
1C"
1*
#300
0*
#310
1D"
1y
0B"
0w
0I
1L
1K
0M
1N
0@"
b100 d
0t
0Q
1u
1s
b11 3
1A"
b11 1
1*
#320
0*
0)
#330
0F"
0{
1D"
1e
1y
1E
0_
1M
0I
0F
1@"
0O
0N
0H
1`
b101 d
1t
1J
1Q
1P
0a
0u
0s
0v
1x
1j
b100 1
0A"
0C"
b100 3
1E"
1*
#340
0*
#350
10"
b1 f
1!"
1<
0>
0D"
0=
0y
1?
1D
1R
0L
0@
0S
1O
0@"
1A
1T
b0 d
0t
0U
0Q
1~
0}
0r
1q
b1111100 2
1u
1s
b1111100 -
b1111100 .
b1111100 h
b1111100 J"
b101 3
1A"
14
b101 1
10
1*
#360
0*
#370
00"
b0 f
0!"
1@"
0<
b1 d
1t
1>
0D
1L
1I
1=
0R
0?
1S
0O
0`
0K
1C
1@
0A
0T
1Q
1a
1U
1|
0u
0s
0x
0j
0~
1}
1r
0q
b10111100 2
b1 ,
b1 /
b1 H"
b0 1
b1 +
b1 g
b1 I"
11"
0A"
b0 3
0E"
b10111100 -
b10111100 .
b10111100 h
b10111100 J"
1*
#380
0*
#390
1B"
1w
0L
1O
0@"
b10 d
0t
0Q
1u
1s
0|
b1 3
1A"
b0 +
b0 g
b0 I"
01"
b0 ,
b0 /
b0 H"
b1 1
1*
#400
0*
1)
#410
10"
b1 f
1!"
1<
0>
0B"
0=
0w
1?
1D
1R
0@
0S
0@"
b0 d
0t
1A
1T
1Q
0P
0U
0u
0s
1v
1~
0}
0r
1q
b1111100 2
b10 1
0A"
b10 3
1C"
b1111100 -
b1111100 .
b1111100 h
b1111100 J"
1*
#420
0*
#430
1L
0O
0C
1P
0v
1|
b0 3
0C"
b1 +
b1 g
b1 I"
11"
b1 ,
b1 /
b1 H"
b0 1
1*
#440
0*
#450
1*
#460
0*
#470
1*
#480
0*
0)
#490
1*
#500
0*
#510
1*
#520
0*
#530
1*
#540
0*
#550
1*
#560
0*
1)
#570
1*
#580
0*
#590
1*
#600
0*
#610
1*
#620
0*
#630
00"
b0 f
0!"
1@"
1C
0<
b1 d
1t
1>
0D
1=
0R
0?
1S
1@
0A
0T
1U
0~
1}
1r
0q
b10111100 2
b10111100 -
b10111100 .
b10111100 h
b10111100 J"
1*
#640
0*
0)
#650
10"
b1 f
1!"
1<
0>
0=
1?
1D
0L
1R
0@
0S
1O
0@"
b0 d
0t
1A
1T
0Q
0U
0|
1u
1s
1~
0}
0r
1q
b1111100 2
b0 ,
b0 /
b0 H"
b1 1
b0 +
b0 g
b0 I"
01"
b1 3
1A"
b1111100 -
b1111100 .
b1111100 h
b1111100 J"
1*
#660
0*
#670
1L
0O
0C
1Q
0u
0s
1|
b0 3
0A"
b1 +
b1 g
b1 I"
11"
b1 ,
b1 /
b1 H"
b0 1
1*
#680
0*
#690
1*
#700
0*
#710
00"
b0 f
0!"
1@"
1C
0<
b1 d
1t
1>
0D
1=
0R
0?
1S
1@
0A
0T
1U
0~
1}
1r
0q
b10111100 2
b10111100 -
b10111100 .
b10111100 h
b10111100 J"
1*
#720
0*
1)
#730
10"
b1 f
1!"
1<
0>
0=
1?
1D
0L
1R
0@
0S
1O
0@"
b0 d
0t
1A
1T
0Q
0U
0|
1u
1s
1~
0}
0r
1q
b1111100 2
b0 ,
b0 /
b0 H"
b1 1
b0 +
b0 g
b0 I"
01"
b1 3
1A"
b1111100 -
b1111100 .
b1111100 h
b1111100 J"
1*
#740
0*
#750
1L
0O
0C
1Q
0u
0s
1|
b0 3
0A"
b1 +
b1 g
b1 I"
11"
b1 ,
b1 /
b1 H"
b0 1
1*
#760
0*
#770
00"
b0 f
0!"
1@"
1C
0<
b1 d
1t
1>
0D
1=
0R
0?
1S
1@
0A
0T
1U
0~
1}
1r
0q
b10111100 2
b10111100 -
b10111100 .
b10111100 h
b10111100 J"
1*
#780
0*
#790
10"
b1 f
1!"
1<
0>
0=
1?
1D
1R
0L
0@
0S
1O
0@"
1A
1T
b0 d
0t
0U
0Q
1~
0}
0r
1q
b1111100 2
1u
1s
0|
b1111100 -
b1111100 .
b1111100 h
b1111100 J"
b1 3
1A"
b0 +
b0 g
b0 I"
01"
b0 ,
b0 /
b0 H"
b1 1
1*
#800
0*
0)
#810
1L
0O
0C
1Q
1|
0u
0s
b1 ,
b1 /
b1 H"
b0 1
b1 +
b1 g
b1 I"
11"
b0 3
0A"
1*
#820
0*
#830
1*
#840
0*
#850
00"
b0 f
0!"
1@"
1C
0<
b1 d
1t
1>
0D
1=
0R
0?
1S
1@
0A
0T
1U
0~
1}
1r
0q
b10111100 2
b10111100 -
b10111100 .
b10111100 h
b10111100 J"
1*
#860
0*
#870
10"
b1 f
1!"
1<
0>
0=
1?
1D
1R
0L
0@
0S
1O
0@"
1A
1T
b0 d
0t
0U
0Q
1~
0}
0r
1q
b1111100 2
1u
1s
0|
b1111100 -
b1111100 .
b1111100 h
b1111100 J"
b1 3
1A"
b0 +
b0 g
b0 I"
01"
b0 ,
b0 /
b0 H"
b1 1
1*
#880
0*
1)
#890
1L
0O
0C
1Q
1|
0u
0s
b1 ,
b1 /
b1 H"
b0 1
b1 +
b1 g
b1 I"
11"
b0 3
0A"
1*
#900
0*
#910
00"
b0 f
0!"
1@"
1C
0<
b1 d
1t
1>
0D
1=
0R
0?
1S
1@
0A
0T
1U
0~
1}
1r
0q
b10111100 2
b10111100 -
b10111100 .
b10111100 h
b10111100 J"
1*
#920
0*
#930
10"
b1 f
1!"
1<
0>
0=
1?
1D
0L
1R
0@
0S
1O
0@"
b0 d
0t
1A
1T
0Q
0U
0|
1u
1s
1~
0}
0r
1q
b1111100 2
b0 ,
b0 /
b0 H"
b1 1
b0 +
b0 g
b0 I"
01"
b1 3
1A"
b1111100 -
b1111100 .
b1111100 h
b1111100 J"
1*
#940
0*
#950
1L
0O
0C
1Q
0u
0s
1|
b0 3
0A"
b1 +
b1 g
b1 I"
11"
b1 ,
b1 /
b1 H"
b0 1
1*
#960
0*
0)
#970
1*
#980
0*
#990
1*
#1000
0*
#1010
00"
b0 f
0!"
1@"
1C
0<
b1 d
1t
1>
0D
1=
0R
0?
1S
1@
0A
0T
1U
0~
1}
1r
0q
b10111100 2
b10111100 -
b10111100 .
b10111100 h
b10111100 J"
1*
#1020
0*
#1030
1B"
1w
0L
1O
0@"
b10 d
0t
0Q
1u
1s
0|
b1 3
1A"
b0 +
b0 g
b0 I"
01"
b0 ,
b0 /
b0 H"
b1 1
1*
#1040
0*
1)
#1050
10"
b1 f
1!"
1<
0>
0B"
0=
0w
1?
1D
1R
0@
0S
0@"
b0 d
0t
1A
1T
1Q
0P
0U
0u
0s
1v
1~
0}
0r
1q
b1111100 2
b10 1
0A"
b10 3
1C"
b1111100 -
b1111100 .
b1111100 h
b1111100 J"
1*
#1060
0*
#1070
00"
b0 f
0!"
1@"
0<
b1 d
1t
1>
0D
1=
0R
1L
0?
1S
0O
1@
0A
0T
1C
1U
1P
0~
1}
1r
0q
b10111100 2
0v
1|
b10111100 -
b10111100 .
b10111100 h
b10111100 J"
b0 3
0C"
b1 +
b1 g
b1 I"
11"
b1 ,
b1 /
b1 H"
b0 1
1*
#1080
0*
#1090
10"
b1 f
1!"
1<
0>
0=
1?
1D
0L
1R
0@
0S
1O
0@"
b0 d
0t
1A
1T
0Q
0U
0|
1u
1s
1~
0}
0r
1q
b1111100 2
b0 ,
b0 /
b0 H"
b1 1
b0 +
b0 g
b0 I"
01"
b1 3
1A"
b1111100 -
b1111100 .
b1111100 h
b1111100 J"
1*
#1100
0*
#1110
00"
b0 f
0!"
1@"
0<
b1 d
1t
1>
0D
1=
0R
1L
0?
1S
0O
1@
0A
0T
1C
1U
1Q
0~
1}
1r
0q
b10111100 2
0u
0s
1|
b10111100 -
b10111100 .
b10111100 h
b10111100 J"
b0 3
0A"
b1 +
b1 g
b1 I"
11"
b1 ,
b1 /
b1 H"
b0 1
1*
#1120
0*
0)
#1130
10"
b1 f
1!"
1<
0>
0=
1?
1D
0L
1R
0@
0S
1O
0@"
b0 d
0t
1A
1T
0Q
0U
0|
1u
1s
1~
0}
0r
1q
b1111100 2
b0 ,
b0 /
b0 H"
b1 1
b0 +
b0 g
b0 I"
01"
b1 3
1A"
b1111100 -
b1111100 .
b1111100 h
b1111100 J"
1*
#1140
0*
#1150
00"
b0 f
0!"
1@"
0<
b1 d
1t
1>
0D
1=
0R
1L
0?
1S
0O
1@
0A
0T
1C
1U
1Q
0~
1}
1r
0q
b10111100 2
0u
0s
1|
b10111100 -
b10111100 .
b10111100 h
b10111100 J"
b0 3
0A"
b1 +
b1 g
b1 I"
11"
b1 ,
b1 /
b1 H"
b0 1
1*
#1160
0*
#1170
10"
b1 f
1!"
1<
0>
0=
1?
1D
0L
1R
0@
0S
1O
0@"
b0 d
0t
1A
1T
0Q
0U
0|
1u
1s
1~
0}
0r
1q
b1111100 2
b0 ,
b0 /
b0 H"
b1 1
b0 +
b0 g
b0 I"
01"
b1 3
1A"
b1111100 -
b1111100 .
b1111100 h
b1111100 J"
1*
#1180
0*
#1190
00"
b0 f
0!"
1@"
0<
b1 d
1t
1>
0D
1=
0R
1L
0?
1S
0O
1@
0A
0T
1C
1U
1Q
0~
1}
1r
0q
b10111100 2
0u
0s
1|
b10111100 -
b10111100 .
b10111100 h
b10111100 J"
b0 3
0A"
b1 +
b1 g
b1 I"
11"
b1 ,
b1 /
b1 H"
b0 1
1*
#1200
0*
1)
#1210
1B"
1w
0L
1O
0@"
b10 d
0t
0Q
0|
1u
1s
b0 ,
b0 /
b0 H"
b1 1
b0 +
b0 g
b0 I"
01"
b1 3
1A"
1*
#1220
0*
#1230
1@"
b11 d
1t
0P
1Q
1v
0u
0s
1C"
b10 3
0A"
b10 1
1*
#1240
0*
#1250
1D"
1y
0B"
0w
0I
1L
1K
0M
1N
0@"
b100 d
0t
0Q
1u
1s
b11 1
b11 3
1A"
1*
#1260
0*
#1270
0F"
0{
1D"
1y
1E
0I
0F
1M
0H
1`
0O
0N
1@"
1J
b101 d
1t
0a
1P
1Q
1x
1j
0v
0u
0s
1E"
0C"
b100 3
0A"
b100 1
1*
#1280
0*
0)
#1290
1B"
1w
0L
1O
0@"
b110 d
0t
0Q
1u
1s
b101 1
b101 3
1A"
1*
#1300
0*
#1310
1@"
b111 d
1t
0P
1Q
1v
0u
0s
1C"
b110 3
0A"
b110 1
1*
#1320
0*
#1330
0D"
0B"
0y
0E
0w
1R
1I
1F
0S
1L
1H
0B
0J
1V
0M
1N
0@"
0W
b0 d
0t
0e
0Q
1X
1u
1s
1c
b0 2
b111 1
b111 3
1A"
0(
1*
#1340
0*
#1350
1E
0K
1_
1I
0F
1M
0H
0`
0O
0N
1J
1a
1P
1Q
0x
0j
0v
0u
0s
0E"
0C"
b0 3
0A"
04
00
b0 1
1*
