PresentacionCasiFInalV3/PresentacionCasiFInalV2/Phy/bancopruebas.vcd
$date
	Tue Jun  9 20:12:31 2020
$end
$version
	Icarus Verilog
$end
$timescale
	1ps
$end
$scope module bancopruebas $end
$var wire 1 ! val_outdemux0 $end
$var wire 1 " val_outdemux1 $end
$var wire 1 # val_outdemux2 $end
$var wire 1 $ val_outdemux3 $end
$var wire 1 % valid_in3 $end
$var wire 1 & valid_in2 $end
$var wire 1 ' valid_in1 $end
$var wire 1 ( valid_in0 $end
$var wire 1 ) val_out3p $end
$var wire 1 * val_out2p $end
$var wire 1 + val_out1p $end
$var wire 1 , val_out0p $end
$var wire 1 - rst $end
$var wire 1 . reset_L $end
$var wire 8 / outp3 [7:0] $end
$var wire 8 0 outp2 [7:0] $end
$var wire 8 1 outp1 [7:0] $end
$var wire 8 2 outp0 [7:0] $end
$var wire 8 3 outdemux3 [7:0] $end
$var wire 8 4 outdemux2 [7:0] $end
$var wire 8 5 outdemux1 [7:0] $end
$var wire 8 6 outdemux0 [7:0] $end
$var wire 8 7 in3 [7:0] $end
$var wire 8 8 in2 [7:0] $end
$var wire 8 9 in1 [7:0] $end
$var wire 8 : in0 [7:0] $end
$var wire 1 ; clk_32f $end
$scope module phy_cond $end
$var wire 1 % valid_in3 $end
$var wire 1 & valid_in2 $end
$var wire 1 ' valid_in1 $end
$var wire 1 ( valid_in0 $end
$var wire 1 < val_outdemux3 $end
$var wire 1 = val_outdemux2 $end
$var wire 1 > val_outdemux1 $end
$var wire 1 ? val_outdemux0 $end
$var wire 1 ) val_out3p $end
$var wire 1 * val_out2p $end
$var wire 1 + val_out1p $end
$var wire 1 , val_out0p $end
$var wire 1 @ salida_tx $end
$var wire 1 A salida_rx $end
$var wire 1 - rst $end
$var wire 1 . reset_L $end
$var wire 8 B outp3 [7:0] $end
$var wire 8 C outp2 [7:0] $end
$var wire 8 D outp1 [7:0] $end
$var wire 8 E outp0 [7:0] $end
$var wire 8 F outdemux3 [7:0] $end
$var wire 8 G outdemux2 [7:0] $end
$var wire 8 H outdemux1 [7:0] $end
$var wire 8 I outdemux0 [7:0] $end
$var wire 8 J in3 [7:0] $end
$var wire 8 K in2 [7:0] $end
$var wire 8 L in1 [7:0] $end
$var wire 8 M in0 [7:0] $end
$var wire 1 ; clk_32f $end
$scope module modrx $end
$var wire 1 N validout_mod1w $end
$var wire 1 O validout3_L1w $end
$var wire 1 P validout2_L1w $end
$var wire 1 Q validout1_L2w $end
$var wire 1 R validout1_L1w $end
$var wire 1 S validout0_L2w $end
$var wire 1 T validout0_L1w $end
$var wire 1 U salida_rx $end
$var wire 1 - rst $end
$var wire 1 . reset_L $end
$var wire 1 V reloj_f $end
$var wire 1 W reloj_4f $end
$var wire 1 X reloj_2f $end
$var wire 1 @ entrada_tx $end
$var wire 1 A dataoutflopACrysal $end
$var wire 8 Y dataoutflop [7:0] $end
$var wire 8 Z dataout_mod1w [7:0] $end
$var wire 8 [ dataout3_mod4w [7:0] $end
$var wire 8 \ dataout2_mod4w [7:0] $end
$var wire 8 ] dataout1_mod4w [7:0] $end
$var wire 8 ^ dataout1_mod3w [7:0] $end
$var wire 8 _ dataout0_mod4w [7:0] $end
$var wire 8 ` dataout0_mod3w [7:0] $end
$var wire 1 ; clk_32f $end
$var wire 1 a activeSincro $end
$var reg 8 b dataout0_mod3 [7:0] $end
$var reg 8 c dataout1_mod3 [7:0] $end
$var reg 8 d dataout_mod1 [7:0] $end
$var reg 8 e out0 [7:0] $end
$var reg 8 f out1 [7:0] $end
$var reg 8 g out2 [7:0] $end
$var reg 8 h out3 [7:0] $end
$var reg 1 , val_out0 $end
$var reg 1 + val_out1 $end
$var reg 1 * val_out2 $end
$var reg 1 ) val_out3 $end
$var reg 1 i validout0_L2 $end
$var reg 1 j validout1_L2 $end
$var reg 1 k validout_mod1 $end
$scope module clock $end
$var wire 1 - rst $end
$var wire 1 ; reloj_32f $end
$var reg 1 l bandera $end
$var reg 5 m counter2f [4:0] $end
$var reg 4 n counter4f [3:0] $end
$var reg 6 o counterf [5:0] $end
$var reg 1 X reloj_2f $end
$var reg 1 W reloj_4f $end
$var reg 1 V reloj_f $end
$upscope $end
$scope module corredorBits $end
$var wire 1 - reset $end
$var wire 1 @ datainflop $end
$var wire 1 ; clk $end
$var reg 1 p dataoutflop $end
$var reg 2 q temp [1:0] $end
$upscope $end
$scope module mod1 $end
$var wire 1 W clk_4f $end
$var wire 1 r data_in $end
$var wire 8 s shift_reg [7:0] $end
$var wire 1 . reset_L $end
$var wire 1 ; clk_32f $end
$var reg 1 a active $end
$var reg 3 t bc_cnt [2:0] $end
$var reg 8 u buffer [7:0] $end
$var reg 8 v data_out [7:0] $end
$var reg 1 N valid_out $end
$upscope $end
$scope module mod2 $end
$var wire 1 a active $end
$var wire 1 . reset $end
$var wire 1 ; clk_32f $end
$var reg 1 U IDL $end
$var reg 4 w contador [3:0] $end
$var reg 8 x data2send [7:0] $end
$upscope $end
$scope module mod3 $end
$var wire 1 W clk_4f $end
$var wire 8 y data_in0_demuxL2 [7:0] $end
$var wire 1 k valid $end
$var wire 1 Q validout1 $end
$var wire 1 S validout0 $end
$var wire 1 . reset_L $end
$var wire 8 z dataout1_demuxL2 [7:0] $end
$var wire 8 { dataout0_demuxL2 [7:0] $end
$var wire 1 ; clk_32f $end
$scope module demux1a2_8bitunoL2 $end
$var wire 1 W clk_4f $end
$var wire 8 | data_in [7:0] $end
$var wire 1 k valid $end
$var wire 1 Q validout1 $end
$var wire 1 S validout0 $end
$var wire 1 } temp1 $end
$var wire 1 ~ temp0 $end
$var wire 1 . reset_L $end
$var wire 8 !" dataout_demux1a2dosbits1 [7:0] $end
$var wire 8 "" dataout_demux1a2dosbits0 [7:0] $end
$var wire 1 ; clk_32f $end
$scope module demux1a2ochobits_dos $end
$var wire 1 W clk_4f $end
$var wire 4 #" data_in [3:0] $end
$var wire 1 k valid $end
$var wire 1 . reset_L $end
$var wire 1 ; clk_32f $end
$var reg 1 $" bandera $end
$var reg 4 %" data_reg0 [3:0] $end
$var reg 4 &" data_reg1 [3:0] $end
$var reg 4 '" dataout_demux1a2cuatrobits0 [3:0] $end
$var reg 4 (" dataout_demux1a2cuatrobits1 [3:0] $end
$var reg 1 )" selecto $end
$var reg 1 *" valid0 $end
$var reg 1 +" valid1 $end
$var reg 1 ~ validout0 $end
$var reg 1 } validout1 $end
$upscope $end
$scope module demux1a2ochobits_uno $end
$var wire 1 W clk_4f $end
$var wire 4 ," data_in [3:0] $end
$var wire 1 k valid $end
$var wire 1 . reset_L $end
$var wire 1 ; clk_32f $end
$var reg 1 -" bandera $end
$var reg 4 ." data_reg0 [3:0] $end
$var reg 4 /" data_reg1 [3:0] $end
$var reg 4 0" dataout_demux1a2cuatrobits0 [3:0] $end
$var reg 4 1" dataout_demux1a2cuatrobits1 [3:0] $end
$var reg 1 2" selecto $end
$var reg 1 3" valid0 $end
$var reg 1 4" valid1 $end
$var reg 1 S validout0 $end
$var reg 1 Q validout1 $end
$upscope $end
$upscope $end
$upscope $end
$scope module mod4 $end
$var wire 1 X clk_2f $end
$var wire 8 5" data_in0_demuxL1 [7:0] $end
$var wire 8 6" data_in1_demuxL1 [7:0] $end
$var wire 1 i valid1 $end
$var wire 1 j valid2 $end
$var wire 1 O validout3 $end
$var wire 1 P validout2 $end
$var wire 1 R validout1 $end
$var wire 1 T validout0 $end
$var wire 1 . reset_L $end
$var wire 8 7" dataout3_demuxL1 [7:0] $end
$var wire 8 8" dataout2_demuxL1 [7:0] $end
$var wire 8 9" dataout1_demuxL1 [7:0] $end
$var wire 8 :" dataout0_demuxL1 [7:0] $end
$var wire 1 ; clk_32f $end
$scope module demux1a2_8bitdosL2 $end
$var wire 1 X clk_2f $end
$var wire 8 ;" data_in [7:0] $end
$var wire 1 j valid $end
$var wire 1 O validout1 $end
$var wire 1 P validout0 $end
$var wire 1 <" temp1 $end
$var wire 1 =" temp0 $end
$var wire 1 . reset_L $end
$var wire 8 >" dataout_demux1a2dosbits1 [7:0] $end
$var wire 8 ?" dataout_demux1a2dosbits0 [7:0] $end
$var wire 1 ; clk_32f $end
$scope module demux1a2ochobits_dos $end
$var wire 1 X clk_2f $end
$var wire 4 @" data_in [3:0] $end
$var wire 1 j valid $end
$var wire 1 . reset_L $end
$var wire 1 ; clk_32f $end
$var reg 1 A" bandera $end
$var reg 4 B" data_reg0 [3:0] $end
$var reg 4 C" data_reg1 [3:0] $end
$var reg 4 D" dataout_demux1a2cuatrobits0 [3:0] $end
$var reg 4 E" dataout_demux1a2cuatrobits1 [3:0] $end
$var reg 1 F" selector $end
$var reg 1 G" valid0 $end
$var reg 1 H" valid1 $end
$var reg 1 =" validout0 $end
$var reg 1 <" validout1 $end
$upscope $end
$scope module demux1a2ochobits_uno $end
$var wire 1 X clk_2f $end
$var wire 4 I" data_in [3:0] $end
$var wire 1 j valid $end
$var wire 1 . reset_L $end
$var wire 1 ; clk_32f $end
$var reg 1 J" bandera $end
$var reg 4 K" data_reg0 [3:0] $end
$var reg 4 L" data_reg1 [3:0] $end
$var reg 4 M" dataout_demux1a2cuatrobits0 [3:0] $end
$var reg 4 N" dataout_demux1a2cuatrobits1 [3:0] $end
$var reg 1 O" selector $end
$var reg 1 P" valid0 $end
$var reg 1 Q" valid1 $end
$var reg 1 P validout0 $end
$var reg 1 O validout1 $end
$upscope $end
$upscope $end
$scope module demux1a2_8bitunoL2 $end
$var wire 1 X clk_2f $end
$var wire 8 R" data_in [7:0] $end
$var wire 1 i valid $end
$var wire 1 R validout1 $end
$var wire 1 T validout0 $end
$var wire 1 S" temp1 $end
$var wire 1 T" temp0 $end
$var wire 1 . reset_L $end
$var wire 8 U" dataout_demux1a2dosbits1 [7:0] $end
$var wire 8 V" dataout_demux1a2dosbits0 [7:0] $end
$var wire 1 ; clk_32f $end
$scope module demux1a2ochobits_dos $end
$var wire 1 X clk_2f $end
$var wire 4 W" data_in [3:0] $end
$var wire 1 i valid $end
$var wire 1 . reset_L $end
$var wire 1 ; clk_32f $end
$var reg 1 X" bandera $end
$var reg 4 Y" data_reg0 [3:0] $end
$var reg 4 Z" data_reg1 [3:0] $end
$var reg 4 [" dataout_demux1a2cuatrobits0 [3:0] $end
$var reg 4 \" dataout_demux1a2cuatrobits1 [3:0] $end
$var reg 1 ]" selector $end
$var reg 1 ^" valid0 $end
$var reg 1 _" valid1 $end
$var reg 1 T" validout0 $end
$var reg 1 S" validout1 $end
$upscope $end
$scope module demux1a2ochobits_uno $end
$var wire 1 X clk_2f $end
$var wire 4 `" data_in [3:0] $end
$var wire 1 i valid $end
$var wire 1 . reset_L $end
$var wire 1 ; clk_32f $end
$var reg 1 a" bandera $end
$var reg 4 b" data_reg0 [3:0] $end
$var reg 4 c" data_reg1 [3:0] $end
$var reg 4 d" dataout_demux1a2cuatrobits0 [3:0] $end
$var reg 4 e" dataout_demux1a2cuatrobits1 [3:0] $end
$var reg 1 f" selector $end
$var reg 1 g" valid0 $end
$var reg 1 h" valid1 $end
$var reg 1 T validout0 $end
$var reg 1 R validout1 $end
$upscope $end
$upscope $end
$upscope $end
$scope module vamosParaIDLE $end
$var wire 1 U datainflop $end
$var wire 1 - reset $end
$var wire 1 ; clk $end
$var reg 1 A dataoutflop $end
$var reg 2 i" temp [1:0] $end
$upscope $end
$upscope $end
$scope module modtx $end
$var wire 1 A IDLE $end
$var wire 1 < valid_outp3 $end
$var wire 1 = valid_outp2 $end
$var wire 1 > valid_outp1 $end
$var wire 1 ? valid_outp0 $end
$var wire 1 j" valid_outf3 $end
$var wire 1 k" valid_outf2 $end
$var wire 1 l" valid_outf1 $end
$var wire 1 m" valid_outf0 $end
$var wire 1 % valid_in3 $end
$var wire 1 & valid_in2 $end
$var wire 1 ' valid_in1 $end
$var wire 1 ( valid_in0 $end
$var wire 1 n" valid_bit_out2 $end
$var wire 1 o" valid_bit_out1 $end
$var wire 1 p" valid_bit_L2 $end
$var wire 1 @ salida_tx $end
$var wire 1 - rst $end
$var wire 1 q" reloj_f $end
$var wire 1 r" reloj_4f $end
$var wire 1 s" reloj_2f $end
$var wire 8 t" outp3 [7:0] $end
$var wire 8 u" outp2 [7:0] $end
$var wire 8 v" outp1 [7:0] $end
$var wire 8 w" outp0 [7:0] $end
$var wire 8 x" outf3 [7:0] $end
$var wire 8 y" outf2 [7:0] $end
$var wire 8 z" outf1 [7:0] $end
$var wire 8 {" outf0 [7:0] $end
$var wire 8 |" in3 [7:0] $end
$var wire 8 }" in2 [7:0] $end
$var wire 8 ~" in1 [7:0] $end
$var wire 8 !# in0 [7:0] $end
$var wire 8 "# data_out_L2 [7:0] $end
$var wire 8 ## data_out2 [7:0] $end
$var wire 8 $# data_out1 [7:0] $end
$var wire 1 ; clk_32f $end
$var wire 1 %# IDLE_out $end
$var reg 8 &# data_reg_0 [7:0] $end
$var reg 8 '# data_reg_1 [7:0] $end
$var reg 8 (# data_reg_2 [7:0] $end
$var reg 8 )# data_reg_3 [7:0] $end
$var reg 1 *# valid_reg_0 $end
$var reg 1 +# valid_reg_1 $end
$var reg 1 ,# valid_reg_2 $end
$var reg 1 -# valid_reg_3 $end
$scope module crysal $end
$var wire 1 A IDL $end
$var wire 1 - reset_L $end
$var wire 8 .# convertidor [7:0] $end
$var wire 1 s" clk_4f $end
$var wire 1 ; clk_32f $end
$var reg 1 %# IDLE_out $end
$var reg 1 /# active $end
$var reg 4 0# bc_cnt [3:0] $end
$var reg 8 1# data_out [7:0] $end
$var reg 8 2# temp [7:0] $end
$upscope $end
$scope module muxL1 $end
$var wire 1 3# selector $end
$var wire 1 n" valid_bit_out2 $end
$var wire 1 o" valid_bit_out1 $end
$var wire 1 j" valid_bit3 $end
$var wire 1 k" valid_bit2 $end
$var wire 1 l" valid_bit1 $end
$var wire 1 m" valid_bit0 $end
$var wire 1 - reset_L $end
$var wire 8 4# in3 [7:0] $end
$var wire 8 5# in2 [7:0] $end
$var wire 8 6# in1 [7:0] $end
$var wire 8 7# in0 [7:0] $end
$var wire 8 8# data_out2 [7:0] $end
$var wire 8 9# data_out1 [7:0] $end
$var wire 1 q" clk_2f $end
$scope module mux1 $end
$var wire 1 o" valid_bit_out $end
$var wire 1 l" valid_bit1 $end
$var wire 1 m" valid_bit0 $end
$var wire 1 q" selector $end
$var wire 1 - reset_L $end
$var wire 8 :# in1 [7:0] $end
$var wire 8 ;# in0 [7:0] $end
$var wire 8 <# data_out [7:0] $end
$var wire 1 =# bittemporal $end
$scope module mux1 $end
$var wire 4 ># in0 [3:0] $end
$var wire 4 ?# in1 [3:0] $end
$var wire 1 l" valid_bit1 $end
$var wire 1 m" valid_bit0 $end
$var wire 1 q" selector $end
$var wire 1 - reset_L $end
$var reg 4 @# A [3:0] $end
$var reg 4 A# data_out [3:0] $end
$var reg 1 o" valid_bit_out $end
$var reg 1 B# validotemporal $end
$upscope $end
$scope module mux2 $end
$var wire 4 C# in0 [3:0] $end
$var wire 4 D# in1 [3:0] $end
$var wire 1 l" valid_bit1 $end
$var wire 1 m" valid_bit0 $end
$var wire 1 q" selector $end
$var wire 1 - reset_L $end
$var reg 4 E# A [3:0] $end
$var reg 4 F# data_out [3:0] $end
$var reg 1 =# valid_bit_out $end
$var reg 1 G# validotemporal $end
$upscope $end
$upscope $end
$scope module mux2 $end
$var wire 1 n" valid_bit_out $end
$var wire 1 j" valid_bit1 $end
$var wire 1 k" valid_bit0 $end
$var wire 1 q" selector $end
$var wire 1 - reset_L $end
$var wire 8 H# in1 [7:0] $end
$var wire 8 I# in0 [7:0] $end
$var wire 8 J# data_out [7:0] $end
$var wire 1 K# bittemporal $end
$scope module mux1 $end
$var wire 4 L# in0 [3:0] $end
$var wire 4 M# in1 [3:0] $end
$var wire 1 j" valid_bit1 $end
$var wire 1 k" valid_bit0 $end
$var wire 1 q" selector $end
$var wire 1 - reset_L $end
$var reg 4 N# A [3:0] $end
$var reg 4 O# data_out [3:0] $end
$var reg 1 n" valid_bit_out $end
$var reg 1 P# validotemporal $end
$upscope $end
$scope module mux2 $end
$var wire 4 Q# in0 [3:0] $end
$var wire 4 R# in1 [3:0] $end
$var wire 1 j" valid_bit1 $end
$var wire 1 k" valid_bit0 $end
$var wire 1 q" selector $end
$var wire 1 - reset_L $end
$var reg 4 S# A [3:0] $end
$var reg 4 T# data_out [3:0] $end
$var reg 1 K# valid_bit_out $end
$var reg 1 U# validotemporal $end
$upscope $end
$upscope $end
$upscope $end
$scope module muxL2 $end
$var wire 8 V# in0_L2 [7:0] $end
$var wire 8 W# in1_L2 [7:0] $end
$var wire 1 X# selector $end
$var wire 1 o" valid_bit0 $end
$var wire 1 n" valid_bit1 $end
$var wire 1 p" valid_bit_L2 $end
$var wire 1 - reset_L $end
$var wire 8 Y# data_out_L2 [7:0] $end
$var wire 1 s" clk_4f $end
$scope module mux1_L2 $end
$var wire 8 Z# in0 [7:0] $end
$var wire 8 [# in1 [7:0] $end
$var wire 1 o" valid_bit0 $end
$var wire 1 n" valid_bit1 $end
$var wire 1 p" valid_bit_out $end
$var wire 1 s" selector $end
$var wire 1 - reset_L $end
$var wire 8 \# data_out [7:0] $end
$var wire 1 ]# bittemporal $end
$scope module mux1 $end
$var wire 4 ^# in0 [3:0] $end
$var wire 4 _# in1 [3:0] $end
$var wire 1 o" valid_bit0 $end
$var wire 1 n" valid_bit1 $end
$var wire 1 s" selector $end
$var wire 1 - reset_L $end
$var reg 4 `# A [3:0] $end
$var reg 4 a# data_out [3:0] $end
$var reg 1 p" valid_bit_out $end
$var reg 1 b# validotemporal $end
$upscope $end
$scope module mux2 $end
$var wire 4 c# in0 [3:0] $end
$var wire 4 d# in1 [3:0] $end
$var wire 1 o" valid_bit0 $end
$var wire 1 n" valid_bit1 $end
$var wire 1 s" selector $end
$var wire 1 - reset_L $end
$var reg 4 e# A [3:0] $end
$var reg 4 f# data_out [3:0] $end
$var reg 1 ]# valid_bit_out $end
$var reg 1 g# validotemporal $end
$upscope $end
$upscope $end
$upscope $end
$scope module par2ser $end
$var wire 8 h# data_in [7:0] $end
$var wire 1 p" valid_in $end
$var wire 1 - reset $end
$var wire 1 ; clk_32f $end
$var reg 4 i# contador [3:0] $end
$var reg 8 j# data2send [7:0] $end
$var reg 1 @ data_out_P2S $end
$upscope $end
$scope module recirculacion $end
$var wire 1 %# IDLE $end
$var wire 8 k# in0 [7:0] $end
$var wire 8 l# in1 [7:0] $end
$var wire 8 m# in2 [7:0] $end
$var wire 8 n# in3 [7:0] $end
$var wire 1 *# valid_in0 $end
$var wire 1 +# valid_in1 $end
$var wire 1 ,# valid_in2 $end
$var wire 1 -# valid_in3 $end
$var reg 8 o# outf0 [7:0] $end
$var reg 8 p# outf1 [7:0] $end
$var reg 8 q# outf2 [7:0] $end
$var reg 8 r# outf3 [7:0] $end
$var reg 8 s# outp0 [7:0] $end
$var reg 8 t# outp1 [7:0] $end
$var reg 8 u# outp2 [7:0] $end
$var reg 8 v# outp3 [7:0] $end
$var reg 1 m" valid_outf0 $end
$var reg 1 l" valid_outf1 $end
$var reg 1 k" valid_outf2 $end
$var reg 1 j" valid_outf3 $end
$var reg 1 ? valid_outp0 $end
$var reg 1 > valid_outp1 $end
$var reg 1 = valid_outp2 $end
$var reg 1 < valid_outp3 $end
$upscope $end
$scope module reloj $end
$var wire 1 - rst $end
$var wire 1 ; reloj_32f $end
$var reg 1 w# bandera $end
$var reg 5 x# counter2f [4:0] $end
$var reg 4 y# counter4f [3:0] $end
$var reg 6 z# counterf [5:0] $end
$var reg 1 s" reloj_2f $end
$var reg 1 r" reloj_4f $end
$var reg 1 q" reloj_f $end
$upscope $end
$upscope $end
$upscope $end
$scope module probadorinst $end
$var wire 8 {# outdemux0 [7:0] $end
$var wire 8 |# outdemux1 [7:0] $end
$var wire 8 }# outdemux2 [7:0] $end
$var wire 8 ~# outdemux3 [7:0] $end
$var wire 8 !$ outp0 [7:0] $end
$var wire 8 "$ outp1 [7:0] $end
$var wire 8 #$ outp2 [7:0] $end
$var wire 8 $$ outp3 [7:0] $end
$var wire 1 , val_out0p $end
$var wire 1 + val_out1p $end
$var wire 1 * val_out2p $end
$var wire 1 ) val_out3p $end
$var wire 1 ! val_outdemux0 $end
$var wire 1 " val_outdemux1 $end
$var wire 1 # val_outdemux2 $end
$var wire 1 $ val_outdemux3 $end
$var reg 1 ; clk_32f $end
$var reg 1 %$ clk_f $end
$var reg 8 &$ in0 [7:0] $end
$var reg 8 '$ in1 [7:0] $end
$var reg 8 ($ in2 [7:0] $end
$var reg 8 )$ in3 [7:0] $end
$var reg 1 . reset_L $end
$var reg 1 - rst $end
$var reg 1 ( valid_in0 $end
$var reg 1 ' valid_in1 $end
$var reg 1 & valid_in2 $end
$var reg 1 % valid_in3 $end
$upscope $end
$upscope $end
$enddefinitions $end
#0
$dumpvars
b10001 )$
b11101110 ($
b11001100 '$
b10101010 &$
0%$
bx $$
bx #$
bx "$
bx !$
bx ~#
bx }#
bx |#
bx {#
bx z#
bx y#
bx x#
xw#
bx v#
bx u#
bx t#
bx s#
bx r#
bx q#
bx p#
bx o#
bx n#
bx m#
bx l#
bx k#
b10111100 j#
bx i#
b0 h#
xg#
b0 f#
b0 e#
b0 d#
b0 c#
xb#
b0 a#
b0 `#
b0 _#
b0 ^#
x]#
b0 \#
b0 [#
b0 Z#
b0 Y#
zX#
b0 W#
b0 V#
xU#
b0 T#
bx S#
bx R#
bx Q#
xP#
b0 O#
bx N#
bx M#
bx L#
xK#
b0 J#
bx I#
bx H#
xG#
b0 F#
bx E#
bx D#
bx C#
xB#
b0 A#
bx @#
bx ?#
bx >#
x=#
b0 <#
bx ;#
bx :#
b0 9#
b0 8#
bx 7#
bx 6#
bx 5#
bx 4#
z3#
bx 2#
bx 1#
bx 0#
x/#
bx .#
x-#
x,#
x+#
x*#
bx )#
bx (#
bx '#
bx &#
x%#
b0 $#
b0 ##
b0 "#
b10101010 !#
b11001100 ~"
b11101110 }"
b10001 |"
bx {"
bx z"
bx y"
bx x"
bx w"
bx v"
bx u"
bx t"
xs"
xr"
xq"
xp"
xo"
xn"
xm"
xl"
xk"
xj"
bx i"
xh"
xg"
xf"
b0 e"
b0 d"
bx c"
bx b"
0a"
bx `"
x_"
x^"
x]"
b0 \"
b0 ["
bx Z"
bx Y"
0X"
bx W"
b0 V"
b0 U"
0T"
0S"
bx R"
xQ"
xP"
xO"
b0 N"
b0 M"
bx L"
bx K"
0J"
bx I"
xH"
xG"
xF"
b0 E"
b0 D"
bx C"
bx B"
0A"
bx @"
b0 ?"
b0 >"
0="
0<"
bx ;"
b0 :"
b0 9"
b0 8"
b0 7"
bx 6"
bx 5"
x4"
x3"
x2"
b0 1"
b0 0"
bx /"
bx ."
0-"
bx ,"
x+"
x*"
x)"
b0 ("
b0 '"
bx &"
bx %"
0$"
bx #"
b0 ""
b0 !"
0~
0}
bx |
b0 {
b0 z
bx y
bx x
bx w
bx v
bx u
bx t
bx s
xr
bx q
xp
bx o
bx n
bx m
xl
xk
xj
xi
bx h
bx g
bx f
bx e
bx d
bx c
bx b
xa
b0 `
b0 _
b0 ^
b0 ]
b0 \
b0 [
bx Z
b0x Y
xX
xW
xV
xU
0T
0S
0R
0Q
0P
0O
xN
b10101010 M
b11001100 L
b11101110 K
b10001 J
bx I
bx H
bx G
bx F
bx E
bx D
bx C
bx B
xA
x@
x?
x>
x=
x<
0;
b10101010 :
b11001100 9
b11101110 8
b10001 7
bx 6
bx 5
bx 4
bx 3
bx 2
bx 1
bx 0
bx /
0.
0-
x,
x+
x*
x)
1(
1'
1&
1%
z$
z#
z"
z!
$end
#2000
0p"
0]#
0o"
0=#
0n"
0K#
b0 R#
b0 M#
b0 Q#
b0 L#
b0 D#
b0 ?#
b0 C#
b0 >#
0B#
b0 @#
0G#
b0 E#
0P#
b0 N#
0U#
b0 S#
0b#
0g#
0j"
b0 x"
b0 4#
b0 H#
b0 r#
0k"
b0 y"
b0 5#
b0 I#
b0 q#
0l"
b0 z"
b0 6#
b0 :#
b0 p#
0m"
b0 {"
b0 7#
b0 ;#
b0 o#
b0 s
0r
0-"
0$"
0a"
0X"
0J"
0A"
0q"
0s"
0r"
b0 z#
b0 x#
b0 y#
b0 i#
0@
0/#
b0 0#
0%#
0V
0X
0W
b0 o
b0 m
b0 n
b0 u
b0 q
b0 Y
0p
b0 i"
0A
b0 w
0U
02"
0)"
0f"
0]"
0O"
0F"
b0 .#
0w#
b0 1#
b0 2#
0l
1;
#4000
0;
#6000
1;
#8000
0;
#10000
1;
#12000
0;
#14000
1;
#16000
0;
#18000
1;
#20000
0;
#22000
1;
#24000
0;
#26000
1;
#28000
0;
#30000
1;
#32000
0;
#34000
1;
#36000
0;
#38000
1;
#40000
0;
#42000
1;
#44000
0;
#46000
1;
#48000
0;
#50000
1;
#52000
0;
#54000
1;
#56000
0;
#58000
1;
#60000
0;
#62000
1;
#64000
b100010 7
b100010 J
b100010 |"
b100010 )$
b11111111 8
b11111111 K
b11111111 }"
b11111111 ($
b11011101 9
b11011101 L
b11011101 ~"
b11011101 '$
b10111011 :
b10111011 M
b10111011 !#
b10111011 &$
0;
1%$
#66000
1;
#68000
0;
#70000
1;
#72000
0;
#74000
1;
#76000
0;
#78000
1;
#80000
0;
#82000
1;
#84000
0;
#86000
1;
#88000
0;
#90000
1;
#92000
0;
#94000
1;
#96000
0;
#98000
1;
#100000
0;
#102000
1;
#104000
0;
#106000
1;
#108000
0;
#110000
1;
#112000
0;
#114000
1;
#116000
0;
#118000
1;
#120000
0;
#122000
1;
#124000
0;
#126000
1;
#128000
0;
0%$
#130000
1;
#132000
0;
#134000
1;
#136000
0;
#138000
1;
#140000
0;
#142000
1;
#144000
0;
#146000
1;
#148000
0;
#150000
1;
#152000
0;
#154000
1;
#156000
0;
#158000
1;
#160000
0;
#162000
1;
#164000
0;
#166000
1;
#168000
0;
#170000
1;
#172000
0;
#174000
1;
#176000
0;
#178000
1;
#180000
0;
#182000
1;
#184000
0;
#186000
1;
#188000
0;
#190000
1;
#192000
b10001 7
b10001 J
b10001 |"
b10001 )$
b11101110 8
b11101110 K
b11101110 }"
b11101110 ($
b11001100 9
b11001100 L
b11001100 ~"
b11001100 '$
b10101010 :
b10101010 M
b10101010 !#
b10101010 &$
0;
1%$
#194000
1;
#196000
0;
#198000
1;
#200000
0;
#202000
1;
#204000
0;
#206000
1;
#208000
0;
#210000
1;
#212000
0;
#214000
1;
#216000
0;
#218000
1;
#220000
0;
#222000
1;
#224000
0;
#226000
1;
#228000
0;
#230000
1;
#232000
0;
#234000
1;
#236000
0;
#238000
1;
#240000
0;
#242000
1;
#244000
0;
#246000
1;
#248000
0;
#250000
1;
#252000
0;
#254000
1;
#256000
0;
0%$
#258000
1;
#260000
0;
#262000
1;
#264000
0;
#266000
1;
#268000
0;
#270000
1;
#272000
0;
#274000
1;
#276000
0;
#278000
1;
#280000
0;
#282000
1;
#284000
0;
#286000
1;
#288000
0;
#290000
1;
#292000
0;
#294000
1;
#296000
0;
#298000
1;
#300000
0;
#302000
1;
#304000
0;
#306000
1;
#308000
0;
#310000
1;
#312000
0;
#314000
1;
#316000
0;
#318000
1;
#320000
1-
b100010 7
b100010 J
b100010 |"
b100010 )$
b11111111 8
b11111111 K
b11111111 }"
b11111111 ($
b11011101 9
b11011101 L
b11011101 ~"
b11011101 '$
b10111011 :
b10111011 M
b10111011 !#
b10111011 &$
0;
1%$
#322000
1<
b100010 3
b100010 F
b100010 t"
b100010 v#
b100010 ~#
1=
b11111111 4
b11111111 G
b11111111 u"
b11111111 u#
b11111111 }#
1>
b11011101 5
b11011101 H
b11011101 v"
b11011101 t#
b11011101 |#
1?
b10111011 6
b10111011 I
b10111011 w"
b10111011 s#
b10111011 {#
b10111100 x
0-"
0$"
1-#
1,#
1+#
1*#
b100010 )#
b100010 n#
b11111111 (#
b11111111 m#
b11011101 '#
b11011101 l#
b10111011 &#
b10111011 k#
0h"
0g"
b0 c"
b0 b"
0_"
0^"
b0 Z"
b0 Y"
0Q"
0P"
b0 L"
b0 K"
0H"
0G"
b0 C"
b0 B"
0a
b0 t
0N
b0 Z
b0 v
04"
03"
b0 /"
b0 ."
0+"
0*"
b0 &"
b0 %"
b0 I"
b0 @"
b0 `"
b0 W"
0A"
0J"
0X"
0a"
b0 /
b0 B
b0 h
b0 $$
b0 0
b0 C
b0 g
b0 #$
b0 1
b0 D
b0 f
b0 "$
b0 2
b0 E
b0 e
b0 !$
0)
0*
0+
0,
b0 c
b0 6"
b0 ;"
b0 b
b0 5"
b0 R"
0j
0i
b1 z#
b1 x#
b1 y#
1q"
1s"
1r"
b1 i#
1@
b1 o
b1 m
b1 n
1V
1X
1W
1w#
1l
1;
#324000
0;
#326000
b1 s
1r
b1 Y
1p
b10 o
b10 m
b10 n
b10 i#
0@
b10 z#
b10 x#
b10 y#
1;
#328000
0;
#330000
b0 s
0r
b11 z#
b11 x#
b11 y#
b11 i#
1@
b11 o
b11 m
b11 n
b0 Y
0p
1;
#332000
0;
#334000
b1 s
1r
b1 Y
1p
b100 o
b100 m
b100 n
b100 i#
b100 z#
b100 x#
b100 y#
1;
#336000
0;
#338000
b101 z#
b101 x#
0r"
b1 y#
b101 i#
b101 o
b101 m
0W
b1 n
1;
#340000
0;
#342000
b110 o
b110 m
b10 n
b110 i#
b110 z#
b110 x#
b10 y#
1;
#344000
0;
#346000
b111 z#
b111 x#
b11 y#
b111 i#
0@
b111 o
b111 m
b11 n
1;
#348000
0;
#350000
b0 s
0r
b0 Y
0p
b1000 o
b1000 m
b100 n
b0 i#
b1000 z#
b1000 x#
b100 y#
1;
#352000
0;
