PresentacionCasiFInal/Phy/bancopruebas.vcd
$date
	Wed Jun  3 16:40:01 2020
$end
$version
	Icarus Verilog
$end
$timescale
	1ps
$end
$scope module bancopruebas $end
$var wire 8 ! outdemux0 [7:0] $end
$var wire 8 " outdemux1 [7:0] $end
$var wire 8 # outdemux2 [7:0] $end
$var wire 8 $ outdemux3 [7:0] $end
$var wire 8 % outp0 [7:0] $end
$var wire 1 & val_outdemux0 $end
$var wire 1 ' val_outdemux1 $end
$var wire 1 ( val_outdemux2 $end
$var wire 1 ) val_outdemux3 $end
$var wire 1 * valid_in3 $end
$var wire 1 + valid_in2 $end
$var wire 1 , valid_in1 $end
$var wire 1 - valid_in0 $end
$var wire 1 . val_out3p $end
$var wire 1 / val_out2p $end
$var wire 1 0 val_out1p $end
$var wire 1 1 val_out0p $end
$var wire 1 2 rst $end
$var wire 1 3 reset_L $end
$var wire 8 4 outp2 [7:0] $end
$var wire 8 5 outp1 [7:0] $end
$var wire 8 6 in3 [7:0] $end
$var wire 8 7 in2 [7:0] $end
$var wire 8 8 in1 [7:0] $end
$var wire 8 9 in0 [7:0] $end
$var wire 1 : clk_32f $end
$scope module phy_cond $end
$var wire 8 ; outdemux0 [7:0] $end
$var wire 8 < outdemux1 [7:0] $end
$var wire 8 = outdemux2 [7:0] $end
$var wire 8 > outdemux3 [7:0] $end
$var wire 8 ? outp0 [7:0] $end
$var wire 8 @ outp3 [7:0] $end
$var wire 1 & val_outdemux0 $end
$var wire 1 ' val_outdemux1 $end
$var wire 1 ( val_outdemux2 $end
$var wire 1 ) val_outdemux3 $end
$var wire 1 * valid_in3 $end
$var wire 1 + valid_in2 $end
$var wire 1 , valid_in1 $end
$var wire 1 - valid_in0 $end
$var wire 1 . val_out3p $end
$var wire 1 A val_out3 $end
$var wire 1 / val_out2p $end
$var wire 1 B val_out2 $end
$var wire 1 0 val_out1p $end
$var wire 1 C val_out1 $end
$var wire 1 1 val_out0p $end
$var wire 1 D val_out0 $end
$var wire 1 E salida_tx $end
$var wire 1 F salida_rx $end
$var wire 1 2 rst $end
$var wire 1 3 reset_L $end
$var wire 8 G outp2 [7:0] $end
$var wire 8 H outp1 [7:0] $end
$var wire 8 I out3 [7:0] $end
$var wire 8 J out2 [7:0] $end
$var wire 8 K out1 [7:0] $end
$var wire 8 L out0 [7:0] $end
$var wire 8 M in3 [7:0] $end
$var wire 8 N in2 [7:0] $end
$var wire 8 O in1 [7:0] $end
$var wire 8 P in0 [7:0] $end
$var wire 1 : clk_32f $end
$scope module modrx $end
$var wire 1 Q validout_mod1w $end
$var wire 1 R validout3_L1w $end
$var wire 1 S validout2_L1w $end
$var wire 1 T validout1_L2w $end
$var wire 1 U validout1_L1w $end
$var wire 1 V validout0_L2w $end
$var wire 1 W validout0_L1w $end
$var wire 1 F salida_rx $end
$var wire 1 2 rst $end
$var wire 1 3 reset_L $end
$var wire 1 X reloj_f $end
$var wire 1 Y reloj_4f $end
$var wire 1 Z reloj_2f $end
$var wire 1 E entrada_tx $end
$var wire 8 [ dataout_mod1w [7:0] $end
$var wire 8 \ dataout3_mod4w [7:0] $end
$var wire 8 ] dataout2_mod4w [7:0] $end
$var wire 8 ^ dataout1_mod4w [7:0] $end
$var wire 8 _ dataout1_mod3w [7:0] $end
$var wire 8 ` dataout0_mod4w [7:0] $end
$var wire 8 a dataout0_mod3w [7:0] $end
$var wire 1 : clk_32f $end
$var reg 8 b dataout0_mod3 [7:0] $end
$var reg 8 c dataout1_mod3 [7:0] $end
$var reg 8 d dataout_mod1 [7:0] $end
$var reg 8 e out0 [7:0] $end
$var reg 8 f out1 [7:0] $end
$var reg 8 g out2 [7:0] $end
$var reg 8 h out3 [7:0] $end
$var reg 1 D val_out0 $end
$var reg 1 C val_out1 $end
$var reg 1 B val_out2 $end
$var reg 1 A val_out3 $end
$var reg 1 i validout0_L2 $end
$var reg 1 j validout1_L2 $end
$var reg 1 k validout_mod1 $end
$scope module clock $end
$var wire 1 2 rst $end
$var wire 1 : reloj_32f $end
$var reg 1 l bandera $end
$var reg 5 m counter2f [4:0] $end
$var reg 4 n counter4f [3:0] $end
$var reg 6 o counterf [5:0] $end
$var reg 1 Z reloj_2f $end
$var reg 1 Y reloj_4f $end
$var reg 1 X reloj_f $end
$upscope $end
$scope module mod1 $end
$var wire 1 Y clk_4f $end
$var wire 8 p shift_reg [7:0] $end
$var wire 1 3 reset_L $end
$var wire 1 E data_in $end
$var wire 1 : clk_32f $end
$var reg 1 q active $end
$var reg 3 r bc_cnt [2:0] $end
$var reg 8 s buffer [7:0] $end
$var reg 8 t data_out [7:0] $end
$var reg 1 Q valid_out $end
$upscope $end
$scope module mod2 $end
$var wire 1 k active $end
$var wire 1 3 reset $end
$var wire 1 : clk_32f $end
$var reg 1 F IDL $end
$var reg 4 u contador [3:0] $end
$var reg 8 v data2send [7:0] $end
$upscope $end
$scope module mod3 $end
$var wire 1 Y clk_4f $end
$var wire 8 w data_in0_demuxL2 [7:0] $end
$var wire 1 k valid $end
$var wire 1 T validout1 $end
$var wire 1 V validout0 $end
$var wire 1 3 reset_L $end
$var wire 8 x dataout1_demuxL2 [7:0] $end
$var wire 8 y dataout0_demuxL2 [7:0] $end
$var wire 1 : clk_32f $end
$scope module demux1a2_8bitunoL2 $end
$var wire 1 Y clk_4f $end
$var wire 8 z data_in [7:0] $end
$var wire 1 k valid $end
$var wire 1 T validout1 $end
$var wire 1 V validout0 $end
$var wire 1 { temp1 $end
$var wire 1 | temp0 $end
$var wire 1 3 reset_L $end
$var wire 8 } dataout_demux1a2dosbits1 [7:0] $end
$var wire 8 ~ dataout_demux1a2dosbits0 [7:0] $end
$var wire 1 : clk_32f $end
$scope module demux1a2ochobits_dos $end
$var wire 1 Y clk_4f $end
$var wire 4 !" data_in [3:0] $end
$var wire 1 k valid $end
$var wire 1 3 reset_L $end
$var wire 1 : clk_32f $end
$var reg 1 "" bandera $end
$var reg 4 #" data_reg0 [3:0] $end
$var reg 4 $" data_reg1 [3:0] $end
$var reg 4 %" dataout_demux1a2cuatrobits0 [3:0] $end
$var reg 4 &" dataout_demux1a2cuatrobits1 [3:0] $end
$var reg 1 '" selector $end
$var reg 1 (" valid0 $end
$var reg 1 )" valid1 $end
$var reg 1 | validout0 $end
$var reg 1 { validout1 $end
$upscope $end
$scope module demux1a2ochobits_uno $end
$var wire 1 Y clk_4f $end
$var wire 4 *" data_in [3:0] $end
$var wire 1 k valid $end
$var wire 1 3 reset_L $end
$var wire 1 : clk_32f $end
$var reg 1 +" bandera $end
$var reg 4 ," data_reg0 [3:0] $end
$var reg 4 -" data_reg1 [3:0] $end
$var reg 4 ." dataout_demux1a2cuatrobits0 [3:0] $end
$var reg 4 /" dataout_demux1a2cuatrobits1 [3:0] $end
$var reg 1 0" selector $end
$var reg 1 1" valid0 $end
$var reg 1 2" valid1 $end
$var reg 1 V validout0 $end
$var reg 1 T validout1 $end
$upscope $end
$upscope $end
$upscope $end
$scope module mod4 $end
$var wire 1 Z clk_2f $end
$var wire 8 3" data_in0_demuxL1 [7:0] $end
$var wire 8 4" data_in1_demuxL1 [7:0] $end
$var wire 1 i valid1 $end
$var wire 1 j valid2 $end
$var wire 1 R validout3 $end
$var wire 1 S validout2 $end
$var wire 1 U validout1 $end
$var wire 1 W validout0 $end
$var wire 1 3 reset_L $end
$var wire 8 5" dataout3_demuxL1 [7:0] $end
$var wire 8 6" dataout2_demuxL1 [7:0] $end
$var wire 8 7" dataout1_demuxL1 [7:0] $end
$var wire 8 8" dataout0_demuxL1 [7:0] $end
$var wire 1 : clk_32f $end
$scope module demux1a2_8bitdosL2 $end
$var wire 1 Z clk_2f $end
$var wire 8 9" data_in [7:0] $end
$var wire 1 j valid $end
$var wire 1 R validout1 $end
$var wire 1 S validout0 $end
$var wire 1 :" temp1 $end
$var wire 1 ;" temp0 $end
$var wire 1 3 reset_L $end
$var wire 8 <" dataout_demux1a2dosbits1 [7:0] $end
$var wire 8 =" dataout_demux1a2dosbits0 [7:0] $end
$var wire 1 : clk_32f $end
$scope module demux1a2ochobits_dos $end
$var wire 1 Z clk_2f $end
$var wire 4 >" data_in [3:0] $end
$var wire 1 j valid $end
$var wire 1 3 reset_L $end
$var wire 1 : clk_32f $end
$var reg 1 ?" bandera $end
$var reg 4 @" data_reg0 [3:0] $end
$var reg 4 A" data_reg1 [3:0] $end
$var reg 4 B" dataout_demux1a2cuatrobits0 [3:0] $end
$var reg 4 C" dataout_demux1a2cuatrobits1 [3:0] $end
$var reg 1 D" selector $end
$var reg 1 E" valid0 $end
$var reg 1 F" valid1 $end
$var reg 1 ;" validout0 $end
$var reg 1 :" validout1 $end
$upscope $end
$scope module demux1a2ochobits_uno $end
$var wire 1 Z clk_2f $end
$var wire 4 G" data_in [3:0] $end
$var wire 1 j valid $end
$var wire 1 3 reset_L $end
$var wire 1 : clk_32f $end
$var reg 1 H" bandera $end
$var reg 4 I" data_reg0 [3:0] $end
$var reg 4 J" data_reg1 [3:0] $end
$var reg 4 K" dataout_demux1a2cuatrobits0 [3:0] $end
$var reg 4 L" dataout_demux1a2cuatrobits1 [3:0] $end
$var reg 1 M" selector $end
$var reg 1 N" valid0 $end
$var reg 1 O" valid1 $end
$var reg 1 S validout0 $end
$var reg 1 R validout1 $end
$upscope $end
$upscope $end
$scope module demux1a2_8bitunoL2 $end
$var wire 1 Z clk_2f $end
$var wire 8 P" data_in [7:0] $end
$var wire 1 i valid $end
$var wire 1 U validout1 $end
$var wire 1 W validout0 $end
$var wire 1 Q" temp1 $end
$var wire 1 R" temp0 $end
$var wire 1 3 reset_L $end
$var wire 8 S" dataout_demux1a2dosbits1 [7:0] $end
$var wire 8 T" dataout_demux1a2dosbits0 [7:0] $end
$var wire 1 : clk_32f $end
$scope module demux1a2ochobits_dos $end
$var wire 1 Z clk_2f $end
$var wire 4 U" data_in [3:0] $end
$var wire 1 i valid $end
$var wire 1 3 reset_L $end
$var wire 1 : clk_32f $end
$var reg 1 V" bandera $end
$var reg 4 W" data_reg0 [3:0] $end
$var reg 4 X" data_reg1 [3:0] $end
$var reg 4 Y" dataout_demux1a2cuatrobits0 [3:0] $end
$var reg 4 Z" dataout_demux1a2cuatrobits1 [3:0] $end
$var reg 1 [" selector $end
$var reg 1 \" valid0 $end
$var reg 1 ]" valid1 $end
$var reg 1 R" validout0 $end
$var reg 1 Q" validout1 $end
$upscope $end
$scope module demux1a2ochobits_uno $end
$var wire 1 Z clk_2f $end
$var wire 4 ^" data_in [3:0] $end
$var wire 1 i valid $end
$var wire 1 3 reset_L $end
$var wire 1 : clk_32f $end
$var reg 1 _" bandera $end
$var reg 4 `" data_reg0 [3:0] $end
$var reg 4 a" data_reg1 [3:0] $end
$var reg 4 b" dataout_demux1a2cuatrobits0 [3:0] $end
$var reg 4 c" dataout_demux1a2cuatrobits1 [3:0] $end
$var reg 1 d" selector $end
$var reg 1 e" valid0 $end
$var reg 1 f" valid1 $end
$var reg 1 W validout0 $end
$var reg 1 U validout1 $end
$upscope $end
$upscope $end
$upscope $end
$upscope $end
$scope module modtx $end
$var wire 1 F IDLE $end
$var wire 8 g" outp0 [7:0] $end
$var wire 8 h" outp3 [7:0] $end
$var wire 1 . valid_outp3 $end
$var wire 1 / valid_outp2 $end
$var wire 1 0 valid_outp1 $end
$var wire 1 1 valid_outp0 $end
$var wire 1 i" valid_outf3 $end
$var wire 1 j" valid_outf2 $end
$var wire 1 k" valid_outf1 $end
$var wire 1 l" valid_outf0 $end
$var wire 1 * valid_in3 $end
$var wire 1 + valid_in2 $end
$var wire 1 , valid_in1 $end
$var wire 1 - valid_in0 $end
$var wire 1 m" valid_bit_out2 $end
$var wire 1 n" valid_bit_out1 $end
$var wire 1 o" valid_bit_L2 $end
$var wire 1 E salida_tx $end
$var wire 1 2 rst $end
$var wire 1 p" reloj_f $end
$var wire 1 q" reloj_4f $end
$var wire 1 r" reloj_2f $end
$var wire 8 s" outp2 [7:0] $end
$var wire 8 t" outp1 [7:0] $end
$var wire 8 u" outf3 [7:0] $end
$var wire 8 v" outf2 [7:0] $end
$var wire 8 w" outf1 [7:0] $end
$var wire 8 x" outf0 [7:0] $end
$var wire 8 y" in3 [7:0] $end
$var wire 8 z" in2 [7:0] $end
$var wire 8 {" in1 [7:0] $end
$var wire 8 |" in0 [7:0] $end
$var wire 8 }" data_out_L2 [7:0] $end
$var wire 8 ~" data_out2 [7:0] $end
$var wire 8 !# data_out1 [7:0] $end
$var wire 1 : clk_32f $end
$var wire 1 "# IDLE_out $end
$var reg 8 ## data_reg_0 [7:0] $end
$var reg 8 $# data_reg_1 [7:0] $end
$var reg 8 %# data_reg_2 [7:0] $end
$var reg 8 &# data_reg_3 [7:0] $end
$var reg 1 '# valid_reg_0 $end
$var reg 1 (# valid_reg_1 $end
$var reg 1 )# valid_reg_2 $end
$var reg 1 *# valid_reg_3 $end
$scope module crysal $end
$var wire 1 F IDL $end
$var wire 1 2 reset_L $end
$var wire 8 +# convertidor [7:0] $end
$var wire 1 r" clk_4f $end
$var wire 1 : clk_32f $end
$var reg 1 "# IDLE_out $end
$var reg 1 ,# active $end
$var reg 4 -# bc_cnt [3:0] $end
$var reg 8 .# temp [7:0] $end
$upscope $end
$scope module muxL1 $end
$var wire 1 /# selector $end
$var wire 1 m" valid_bit_out2 $end
$var wire 1 n" valid_bit_out1 $end
$var wire 1 i" valid_bit3 $end
$var wire 1 j" valid_bit2 $end
$var wire 1 k" valid_bit1 $end
$var wire 1 l" valid_bit0 $end
$var wire 1 2 reset_L $end
$var wire 8 0# in3 [7:0] $end
$var wire 8 1# in2 [7:0] $end
$var wire 8 2# in1 [7:0] $end
$var wire 8 3# in0 [7:0] $end
$var wire 8 4# data_out2 [7:0] $end
$var wire 8 5# data_out1 [7:0] $end
$var wire 1 p" clk_2f $end
$scope module mux1 $end
$var wire 1 n" valid_bit_out $end
$var wire 1 k" valid_bit1 $end
$var wire 1 l" valid_bit0 $end
$var wire 1 p" selector $end
$var wire 1 2 reset_L $end
$var wire 8 6# in1 [7:0] $end
$var wire 8 7# in0 [7:0] $end
$var wire 8 8# data_out [7:0] $end
$var wire 1 9# bittemporal $end
$scope module mux1 $end
$var wire 4 :# in0 [3:0] $end
$var wire 4 ;# in1 [3:0] $end
$var wire 1 k" valid_bit1 $end
$var wire 1 l" valid_bit0 $end
$var wire 1 p" selector $end
$var wire 1 2 reset_L $end
$var reg 4 <# A [3:0] $end
$var reg 4 =# data_out [3:0] $end
$var reg 1 n" valid_bit_out $end
$var reg 1 ># validotemporal $end
$upscope $end
$scope module mux2 $end
$var wire 4 ?# in0 [3:0] $end
$var wire 4 @# in1 [3:0] $end
$var wire 1 k" valid_bit1 $end
$var wire 1 l" valid_bit0 $end
$var wire 1 p" selector $end
$var wire 1 2 reset_L $end
$var reg 4 A# A [3:0] $end
$var reg 4 B# data_out [3:0] $end
$var reg 1 9# valid_bit_out $end
$var reg 1 C# validotemporal $end
$upscope $end
$upscope $end
$scope module mux2 $end
$var wire 1 m" valid_bit_out $end
$var wire 1 i" valid_bit1 $end
$var wire 1 j" valid_bit0 $end
$var wire 1 p" selector $end
$var wire 1 2 reset_L $end
$var wire 8 D# in1 [7:0] $end
$var wire 8 E# in0 [7:0] $end
$var wire 8 F# data_out [7:0] $end
$var wire 1 G# bittemporal $end
$scope module mux1 $end
$var wire 4 H# in0 [3:0] $end
$var wire 4 I# in1 [3:0] $end
$var wire 1 i" valid_bit1 $end
$var wire 1 j" valid_bit0 $end
$var wire 1 p" selector $end
$var wire 1 2 reset_L $end
$var reg 4 J# A [3:0] $end
$var reg 4 K# data_out [3:0] $end
$var reg 1 m" valid_bit_out $end
$var reg 1 L# validotemporal $end
$upscope $end
$scope module mux2 $end
$var wire 4 M# in0 [3:0] $end
$var wire 4 N# in1 [3:0] $end
$var wire 1 i" valid_bit1 $end
$var wire 1 j" valid_bit0 $end
$var wire 1 p" selector $end
$var wire 1 2 reset_L $end
$var reg 4 O# A [3:0] $end
$var reg 4 P# data_out [3:0] $end
$var reg 1 G# valid_bit_out $end
$var reg 1 Q# validotemporal $end
$upscope $end
$upscope $end
$upscope $end
$scope module muxL2 $end
$var wire 8 R# in0_L2 [7:0] $end
$var wire 8 S# in1_L2 [7:0] $end
$var wire 1 T# selector $end
$var wire 1 n" valid_bit0 $end
$var wire 1 m" valid_bit1 $end
$var wire 1 o" valid_bit_L2 $end
$var wire 1 2 reset_L $end
$var wire 8 U# data_out_L2 [7:0] $end
$var wire 1 r" clk_4f $end
$scope module mux1_L2 $end
$var wire 8 V# in0 [7:0] $end
$var wire 8 W# in1 [7:0] $end
$var wire 1 n" valid_bit0 $end
$var wire 1 m" valid_bit1 $end
$var wire 1 o" valid_bit_out $end
$var wire 1 r" selector $end
$var wire 1 2 reset_L $end
$var wire 8 X# data_out [7:0] $end
$var wire 1 Y# bittemporal $end
$scope module mux1 $end
$var wire 4 Z# in0 [3:0] $end
$var wire 4 [# in1 [3:0] $end
$var wire 1 n" valid_bit0 $end
$var wire 1 m" valid_bit1 $end
$var wire 1 r" selector $end
$var wire 1 2 reset_L $end
$var reg 4 \# A [3:0] $end
$var reg 4 ]# data_out [3:0] $end
$var reg 1 o" valid_bit_out $end
$var reg 1 ^# validotemporal $end
$upscope $end
$scope module mux2 $end
$var wire 4 _# in0 [3:0] $end
$var wire 4 `# in1 [3:0] $end
$var wire 1 n" valid_bit0 $end
$var wire 1 m" valid_bit1 $end
$var wire 1 r" selector $end
$var wire 1 2 reset_L $end
$var reg 4 a# A [3:0] $end
$var reg 4 b# data_out [3:0] $end
$var reg 1 Y# valid_bit_out $end
$var reg 1 c# validotemporal $end
$upscope $end
$upscope $end
$upscope $end
$scope module par2ser $end
$var wire 8 d# data_in [7:0] $end
$var wire 1 o" valid_in $end
$var wire 1 2 reset $end
$var wire 1 : clk_32f $end
$var reg 4 e# contador [3:0] $end
$var reg 8 f# data2send [7:0] $end
$var reg 1 E data_out_P2S $end
$upscope $end
$scope module recirculacion $end
$var wire 1 "# IDLE $end
$var wire 8 g# in0 [7:0] $end
$var wire 8 h# in1 [7:0] $end
$var wire 8 i# in2 [7:0] $end
$var wire 8 j# in3 [7:0] $end
$var wire 1 '# valid_in0 $end
$var wire 1 (# valid_in1 $end
$var wire 1 )# valid_in2 $end
$var wire 1 *# valid_in3 $end
$var reg 8 k# outf0 [7:0] $end
$var reg 8 l# outf1 [7:0] $end
$var reg 8 m# outf2 [7:0] $end
$var reg 8 n# outf3 [7:0] $end
$var reg 8 o# outp0 [7:0] $end
$var reg 8 p# outp1 [7:0] $end
$var reg 8 q# outp2 [7:0] $end
$var reg 8 r# outp3 [7:0] $end
$var reg 1 l" valid_outf0 $end
$var reg 1 k" valid_outf1 $end
$var reg 1 j" valid_outf2 $end
$var reg 1 i" valid_outf3 $end
$var reg 1 1 valid_outp0 $end
$var reg 1 0 valid_outp1 $end
$var reg 1 / valid_outp2 $end
$var reg 1 . valid_outp3 $end
$upscope $end
$scope module reloj $end
$var wire 1 2 rst $end
$var wire 1 : reloj_32f $end
$var reg 1 s# bandera $end
$var reg 5 t# counter2f [4:0] $end
$var reg 4 u# counter4f [3:0] $end
$var reg 6 v# counterf [5:0] $end
$var reg 1 r" reloj_2f $end
$var reg 1 q" reloj_4f $end
$var reg 1 p" reloj_f $end
$upscope $end
$upscope $end
$upscope $end
$scope module probadorinst $end
$var wire 8 w# outdemux0 [7:0] $end
$var wire 8 x# outdemux1 [7:0] $end
$var wire 8 y# outdemux2 [7:0] $end
$var wire 8 z# outdemux3 [7:0] $end
$var wire 8 {# outp0 [7:0] $end
$var wire 8 |# outp1 [7:0] $end
$var wire 8 }# outp2 [7:0] $end
$var wire 8 ~# outp3 [7:0] $end
$var wire 1 1 val_out0p $end
$var wire 1 0 val_out1p $end
$var wire 1 / val_out2p $end
$var wire 1 . val_out3p $end
$var wire 1 & val_outdemux0 $end
$var wire 1 ' val_outdemux1 $end
$var wire 1 ( val_outdemux2 $end
$var wire 1 ) val_outdemux3 $end
$var reg 1 : clk_32f $end
$var reg 8 !$ in0 [7:0] $end
$var reg 8 "$ in1 [7:0] $end
$var reg 8 #$ in2 [7:0] $end
$var reg 8 $$ in3 [7:0] $end
$var reg 1 3 reset_L $end
$var reg 1 2 rst $end
$var reg 1 - valid_in0 $end
$var reg 1 , valid_in1 $end
$var reg 1 + valid_in2 $end
$var reg 1 * valid_in3 $end
$upscope $end
$upscope $end
$enddefinitions $end
#0
$dumpvars
b11011101 $$
b11001100 #$
b10111011 "$
b10101010 !$
bx ~#
bx }#
bx |#
bx {#
bz z#
bz y#
bz x#
bz w#
bx v#
bx u#
bx t#
xs#
bx r#
bx q#
bx p#
bx o#
bx n#
bx m#
bx l#
bx k#
bx j#
bx i#
bx h#
bx g#
b10111100 f#
bx e#
b0 d#
xc#
b0 b#
b0 a#
b0 `#
b0 _#
x^#
b0 ]#
b0 \#
b0 [#
b0 Z#
xY#
b0 X#
b0 W#
b0 V#
b0 U#
zT#
b0 S#
b0 R#
xQ#
b0 P#
bx O#
bx N#
bx M#
xL#
b0 K#
bx J#
bx I#
bx H#
xG#
b0 F#
bx E#
bx D#
xC#
b0 B#
bx A#
bx @#
bx ?#
x>#
b0 =#
bx <#
bx ;#
bx :#
x9#
b0 8#
bx 7#
bx 6#
b0 5#
b0 4#
bx 3#
bx 2#
bx 1#
bx 0#
z/#
b0 .#
bx -#
x,#
b0x +#
x*#
x)#
x(#
x'#
bx &#
bx %#
bx $#
bx ##
x"#
b0 !#
b0 ~"
b0 }"
b10101010 |"
b10111011 {"
b11001100 z"
b11011101 y"
bx x"
bx w"
bx v"
bx u"
bx t"
bx s"
xr"
xq"
xp"
xo"
xn"
xm"
xl"
xk"
xj"
xi"
bx h"
bx g"
xf"
xe"
xd"
bx c"
bx b"
bx a"
bx `"
x_"
bx ^"
x]"
x\"
x["
bx Z"
bx Y"
bx X"
bx W"
xV"
bx U"
bx T"
bx S"
xR"
xQ"
bx P"
xO"
xN"
xM"
bx L"
bx K"
bx J"
bx I"
xH"
bx G"
xF"
xE"
xD"
bx C"
bx B"
bx A"
bx @"
x?"
bx >"
bx ="
bx <"
x;"
x:"
bx 9"
bx 8"
bx 7"
bx 6"
bx 5"
bx 4"
bx 3"
x2"
x1"
x0"
bx /"
bx ."
bx -"
bx ,"
x+"
bx *"
x)"
x("
x'"
bx &"
bx %"
bx $"
bx #"
x""
bx !"
bx ~
bx }
x|
x{
bx z
bx y
bx x
bx w
bx v
bx u
bx t
bx s
bx r
xq
bx p
bx o
bx n
bx m
xl
xk
xj
xi
bx h
bx g
bx f
bx e
bx d
bx c
bx b
bx a
bx `
bx _
bx ^
bx ]
bx \
bx [
xZ
xY
xX
xW
xV
xU
xT
xS
xR
xQ
b10101010 P
b10111011 O
b11001100 N
b11011101 M
bx L
bx K
bx J
bx I
bx H
bx G
xF
xE
xD
xC
xB
xA
bx @
bx ?
bz >
bz =
bz <
bz ;
0:
b10101010 9
b10111011 8
b11001100 7
b11011101 6
bx 5
bx 4
x3
02
x1
x0
x/
x.
0-
1,
0+
0*
z)
z(
z'
z&
bx %
bz $
bz #
bz "
bz !
$end
#2000
0o"
0Y#
0n"
09#
0m"
0G#
b0 N#
b0 I#
b0 M#
b0 H#
b0 @#
b0 ;#
b0 ?#
b0 :#
0>#
b0 <#
0C#
b0 A#
0L#
b0 J#
0Q#
b0 O#
0^#
0c#
bx0 p
0i"
b0 u"
b0 0#
b0 D#
b0 n#
0j"
b0 v"
b0 1#
b0 E#
b0 m#
0k"
b0 w"
b0 2#
b0 6#
b0 l#
0l"
b0 x"
b0 3#
b0 7#
b0 k#
0""
0{
0|
b0 &"
b0 %"
0+"
0T
0V
b0 _
b0 x
b0 }
b0 /"
b0 a
b0 y
b0 ~
b0 ."
0?"
0:"
0;"
b0 C"
b0 B"
0H"
0R
0S
b0 \
b0 5"
b0 <"
b0 L"
b0 ]
b0 6"
b0 ="
b0 K"
0V"
0Q"
0R"
b0 Z"
b0 Y"
0_"
0U
0W
b0 ^
b0 7"
b0 S"
b0 c"
b0 `
b0 8"
b0 T"
b0 b"
0p"
0r"
0q"
b0 v#
b0 t#
b0 u#
b0 e#
0E
0,#
b0 -#
0"#
0X
0Z
0Y
b0 o
b0 m
b0 n
03
0s#
0l
1:
#4000
0:
#6000
0?"
0H"
0V"
0_"
0""
0+"
b0 +#
b0 p
12
0D"
0M"
0["
0d"
0'"
00"
b0 u
0F
b0 s
1:
#8000
0:
#10000
0.
b1xxx1xxx %
b1xxx1xxx ?
b1xxx1xxx @
b1xxx1xxx g"
b1xxx1xxx h"
b1xxx1xxx {#
b1xxx1xxx ~#
b11011101 r#
0/
b11001100 4
b11001100 G
b11001100 s"
b11001100 q#
b11001100 }#
10
b10111011 5
b10111011 H
b10111011 t"
b10111011 p#
b10111011 |#
01
b10101010 o#
0*#
0)#
1(#
0'#
b11011101 &#
b11011101 j#
b11001100 %#
b11001100 i#
b10111011 $#
b10111011 h#
b10101010 ##
b10101010 g#
b0 r
b0 [
b0 t
b1 p
x{
x|
bx %"
bx &"
1""
xT
xV
bx a
bx y
bx ~
bx ."
bx _
bx x
bx }
bx /"
1+"
x:"
x;"
bx B"
bx C"
1?"
xR
xS
bx ]
bx 6"
bx ="
bx K"
bx \
bx 5"
bx <"
bx L"
1H"
xQ"
xR"
bx Y"
bx Z"
1V"
xU
xW
bx `
bx 8"
bx T"
bx b"
bx ^
bx 7"
bx S"
bx c"
1_"
b1 v#
b1 t#
b1 u#
1p"
1r"
1q"
b1 e#
1E
b1 o
b1 m
b1 n
1X
1Z
1Y
13
1s#
1l
1:
#12000
0:
#14000
bx .#
bx +#
b10 p
b1 u
xF
b1 s
b10 o
b10 m
b10 n
b10 e#
0E
b10 v#
b10 t#
b10 u#
1:
#16000
0:
#18000
b101 p
b11 v#
b11 t#
b11 u#
b11 e#
1E
b11 o
b11 m
b11 n
b10 s
b10 u
1:
#20000
0:
#22000
b1011 p
b11 u
b101 s
b100 o
b100 m
b100 n
b100 e#
b100 v#
b100 t#
b100 u#
1:
#24000
0:
#26000
b10111 p
b101 v#
b101 t#
0q"
b1 u#
b101 e#
b101 o
b101 m
0Y
b1 n
b1011 s
b100 u
1:
#28000
0:
#30000
b101111 p
b101 u
b10111 s
b110 o
b110 m
b10 n
b110 e#
b110 v#
b110 t#
b10 u#
1:
#32000
0:
#34000
b1011110 p
b111 v#
b111 t#
b11 u#
b111 e#
0E
b111 o
b111 m
b11 n
b101111 s
b110 u
1:
#36000
0:
#38000
b10111100 p
b111 u
b1011110 s
b1000 o
b1000 m
b100 n
b0 e#
b1000 v#
b1000 t#
b100 u#
1:
#40000
0:
#42000
b1111001 [
b1111001 t
xT
xV
bx /"
bx ."
x{
x|
bx _
bx x
bx }
bx &"
bx a
bx y
bx ~
bx %"
b0 *"
b0 !"
b0 d
b0 w
b0 z
b1111001 p
b1001 v#
0r"
b1 t#
1q"
b1 u#
b1 e#
1E
b1001 o
0Z
b1 m
1Y
b1 n
b10111100 s
b0 u
b11111111 6
b11111111 M
b11111111 y"
b11111111 $$
b11111111 7
b11111111 N
b11111111 z"
b11111111 #$
b11111111 8
b11111111 O
b11111111 {"
b11111111 "$
b11111111 9
b11111111 P
b11111111 |"
b11111111 !$
1:
#44000
0:
#46000
b11110010 p
b1 u
b1111001 s
b1010 o
b10 m
b10 n
b10 e#
0E
b1010 v#
b10 t#
b10 u#
1:
#48000
0:
#50000
b11100101 p
b1011 v#
b11 t#
b11 u#
b11 e#
1E
b1011 o
b11 m
b11 n
b11110010 s
b10 u
1:
#52000
0:
#54000
b11001011 p
b11 u
b11100101 s
b1100 o
b100 m
b100 n
b100 e#
b1100 v#
b100 t#
b100 u#
1:
#56000
0:
#58000
b10010111 p
b1101 v#
b101 t#
0q"
b1 u#
b101 e#
b1101 o
b101 m
0Y
b1 n
b11001011 s
b100 u
1:
#60000
0:
#62000
b101111 p
b101 u
b10010111 s
b1110 o
b110 m
b10 n
b110 e#
b1110 v#
b110 t#
b10 u#
1:
#64000
0:
#66000
b1011110 p
b1111 v#
b111 t#
b11 u#
b111 e#
0E
b1111 o
b111 m
b11 n
b101111 s
b110 u
1:
#68000
0:
#70000
b10111100 p
b111 u
b1011110 s
b10000 o
b1000 m
b100 n
b0 e#
b10000 v#
b1000 t#
b100 u#
1:
#72000
0:
#74000
xT
xV
bx /"
bx ."
x{
x|
bx _
bx x
bx }
bx &"
bx a
bx y
bx ~
bx %"
b1001 *"
b111 !"
b1111001 d
b1111001 w
b1111001 z
b1111001 p
0p"
b1 v#
1r"
b1 t#
1q"
b1 u#
b1 e#
1E
0X
b1 o
1Z
b1 m
1Y
b1 n
b10111100 s
b0 u
1:
#76000
0:
#78000
b11110010 p
b1 u
b1111001 s
b10 o
b10 m
b10 n
b10 e#
0E
b10 v#
b10 t#
b10 u#
1:
#80000
0:
#82000
b11100101 p
b11 v#
b11 t#
b11 u#
b11 e#
1E
b11 o
b11 m
b11 n
b11110010 s
b10 u
1:
#84000
0:
#86000
b11001011 p
b0 6
b0 M
b0 y"
b0 $$
b0 8
b0 O
b0 {"
b0 "$
b11 u
b11100101 s
b100 o
b100 m
b100 n
b100 e#
b100 v#
b100 t#
b100 u#
1:
#88000
0:
#90000
b10010111 p
b101 v#
b101 t#
0q"
b1 u#
b101 e#
b101 o
b101 m
0Y
b1 n
b11001011 s
b100 u
1:
#92000
0:
#94000
b101111 p
b101 u
b10010111 s
b110 o
b110 m
b10 n
b110 e#
b110 v#
b110 t#
b10 u#
1:
#96000
0:
#98000
b1011110 p
b111 v#
b111 t#
b11 u#
b111 e#
0E
b111 o
b111 m
b11 n
b101111 s
b110 u
1:
#100000
0:
