Tx/bancopruebas.vcd
$date
	Tue Jun  2 03:24:39 2020
$end
$version
	Icarus Verilog
$end
$timescale
	1ps
$end
$scope module bancopruebas $end
$var wire 1 ! valid_in3 $end
$var wire 1 " valid_in2 $end
$var wire 1 # valid_in1 $end
$var wire 1 $ valid_in0 $end
$var wire 1 % selector_2f $end
$var wire 1 & salida_tx $end
$var wire 1 ' rst $end
$var wire 8 ( in3 [7:0] $end
$var wire 8 ) in2 [7:0] $end
$var wire 8 * in1 [7:0] $end
$var wire 8 + in0 [7:0] $end
$var wire 1 , clk_32f $end
$var wire 1 - IDLE $end
$scope module phy_cond $end
$var wire 1 . valid_outf3 $end
$var wire 1 / valid_outf2 $end
$var wire 1 0 valid_outf1 $end
$var wire 1 1 valid_outf0 $end
$var wire 1 ! valid_in3 $end
$var wire 1 " valid_in2 $end
$var wire 1 # valid_in1 $end
$var wire 1 $ valid_in0 $end
$var wire 1 2 valid_bit_out2 $end
$var wire 1 3 valid_bit_out1 $end
$var wire 1 4 valid_bit_L2 $end
$var wire 1 % selector_2f $end
$var wire 1 & salida_tx $end
$var wire 1 ' rst $end
$var wire 1 5 reloj_f $end
$var wire 1 6 reloj_4f $end
$var wire 1 7 reloj_2f $end
$var wire 8 8 outf3 [7:0] $end
$var wire 8 9 outf2 [7:0] $end
$var wire 8 : outf1 [7:0] $end
$var wire 8 ; outf0 [7:0] $end
$var wire 8 < in3 [7:0] $end
$var wire 8 = in2 [7:0] $end
$var wire 8 > in1 [7:0] $end
$var wire 8 ? in0 [7:0] $end
$var wire 8 @ data_out_L2 [7:0] $end
$var wire 8 A data_out2 [7:0] $end
$var wire 8 B data_out1 [7:0] $end
$var wire 1 , clk_32f $end
$var wire 1 - IDLE $end
$var reg 8 C data_reg_0 [7:0] $end
$var reg 8 D data_reg_1 [7:0] $end
$var reg 8 E data_reg_2 [7:0] $end
$var reg 8 F data_reg_3 [7:0] $end
$var reg 1 G valid_reg_0 $end
$var reg 1 H valid_reg_1 $end
$var reg 1 I valid_reg_2 $end
$var reg 1 J valid_reg_3 $end
$scope module muxL1 $end
$var wire 1 K selector $end
$var wire 1 2 valid_bit_out2 $end
$var wire 1 3 valid_bit_out1 $end
$var wire 1 . valid_bit3 $end
$var wire 1 / valid_bit2 $end
$var wire 1 0 valid_bit1 $end
$var wire 1 1 valid_bit0 $end
$var wire 1 ' reset_L $end
$var wire 8 L in3 [7:0] $end
$var wire 8 M in2 [7:0] $end
$var wire 8 N in1 [7:0] $end
$var wire 8 O in0 [7:0] $end
$var wire 8 P data_out2 [7:0] $end
$var wire 8 Q data_out1 [7:0] $end
$var wire 1 5 clk_2f $end
$scope module mux1 $end
$var wire 1 3 valid_bit_out $end
$var wire 1 0 valid_bit1 $end
$var wire 1 1 valid_bit0 $end
$var wire 1 5 selector $end
$var wire 1 ' reset_L $end
$var wire 8 R in1 [7:0] $end
$var wire 8 S in0 [7:0] $end
$var wire 8 T data_out [7:0] $end
$var wire 1 U bittemporal $end
$scope module mux1 $end
$var wire 4 V in0 [3:0] $end
$var wire 4 W in1 [3:0] $end
$var wire 1 0 valid_bit1 $end
$var wire 1 1 valid_bit0 $end
$var wire 1 5 selector $end
$var wire 1 ' reset_L $end
$var reg 4 X A [3:0] $end
$var reg 4 Y data_out [3:0] $end
$var reg 1 3 valid_bit_out $end
$var reg 1 Z validotemporal $end
$upscope $end
$scope module mux2 $end
$var wire 4 [ in0 [3:0] $end
$var wire 4 \ in1 [3:0] $end
$var wire 1 0 valid_bit1 $end
$var wire 1 1 valid_bit0 $end
$var wire 1 5 selector $end
$var wire 1 ' reset_L $end
$var reg 4 ] A [3:0] $end
$var reg 4 ^ data_out [3:0] $end
$var reg 1 U valid_bit_out $end
$var reg 1 _ validotemporal $end
$upscope $end
$upscope $end
$scope module mux2 $end
$var wire 1 2 valid_bit_out $end
$var wire 1 . valid_bit1 $end
$var wire 1 / valid_bit0 $end
$var wire 1 5 selector $end
$var wire 1 ' reset_L $end
$var wire 8 ` in1 [7:0] $end
$var wire 8 a in0 [7:0] $end
$var wire 8 b data_out [7:0] $end
$var wire 1 c bittemporal $end
$scope module mux1 $end
$var wire 4 d in0 [3:0] $end
$var wire 4 e in1 [3:0] $end
$var wire 1 . valid_bit1 $end
$var wire 1 / valid_bit0 $end
$var wire 1 5 selector $end
$var wire 1 ' reset_L $end
$var reg 4 f A [3:0] $end
$var reg 4 g data_out [3:0] $end
$var reg 1 2 valid_bit_out $end
$var reg 1 h validotemporal $end
$upscope $end
$scope module mux2 $end
$var wire 4 i in0 [3:0] $end
$var wire 4 j in1 [3:0] $end
$var wire 1 . valid_bit1 $end
$var wire 1 / valid_bit0 $end
$var wire 1 5 selector $end
$var wire 1 ' reset_L $end
$var reg 4 k A [3:0] $end
$var reg 4 l data_out [3:0] $end
$var reg 1 c valid_bit_out $end
$var reg 1 m validotemporal $end
$upscope $end
$upscope $end
$upscope $end
$scope module muxL2 $end
$var wire 8 n in0_L2 [7:0] $end
$var wire 8 o in1_L2 [7:0] $end
$var wire 1 p selector $end
$var wire 1 3 valid_bit0 $end
$var wire 1 2 valid_bit1 $end
$var wire 1 4 valid_bit_L2 $end
$var wire 1 ' reset_L $end
$var wire 8 q data_out_L2 [7:0] $end
$var wire 1 7 clk_4f $end
$scope module mux1_L2 $end
$var wire 8 r in0 [7:0] $end
$var wire 8 s in1 [7:0] $end
$var wire 1 3 valid_bit0 $end
$var wire 1 2 valid_bit1 $end
$var wire 1 4 valid_bit_out $end
$var wire 1 7 selector $end
$var wire 1 ' reset_L $end
$var wire 8 t data_out [7:0] $end
$var wire 1 u bittemporal $end
$scope module mux1 $end
$var wire 4 v in0 [3:0] $end
$var wire 4 w in1 [3:0] $end
$var wire 1 3 valid_bit0 $end
$var wire 1 2 valid_bit1 $end
$var wire 1 7 selector $end
$var wire 1 ' reset_L $end
$var reg 4 x A [3:0] $end
$var reg 4 y data_out [3:0] $end
$var reg 1 4 valid_bit_out $end
$var reg 1 z validotemporal $end
$upscope $end
$scope module mux2 $end
$var wire 4 { in0 [3:0] $end
$var wire 4 | in1 [3:0] $end
$var wire 1 3 valid_bit0 $end
$var wire 1 2 valid_bit1 $end
$var wire 1 7 selector $end
$var wire 1 ' reset_L $end
$var reg 4 } A [3:0] $end
$var reg 4 ~ data_out [3:0] $end
$var reg 1 u valid_bit_out $end
$var reg 1 !" validotemporal $end
$upscope $end
$upscope $end
$upscope $end
$scope module par2ser $end
$var wire 8 "" data_in [7:0] $end
$var wire 1 4 valid_in $end
$var wire 1 ' reset $end
$var wire 1 , clk_32f $end
$var reg 4 #" contador [3:0] $end
$var reg 8 $" data2send [7:0] $end
$var reg 1 & data_out_P2S $end
$upscope $end
$scope module recirculacion $end
$var wire 8 %" in0 [7:0] $end
$var wire 8 &" in1 [7:0] $end
$var wire 8 '" in2 [7:0] $end
$var wire 8 (" in3 [7:0] $end
$var wire 1 G valid_in0 $end
$var wire 1 H valid_in1 $end
$var wire 1 I valid_in2 $end
$var wire 1 J valid_in3 $end
$var wire 1 - IDLE $end
$var reg 8 )" outf0 [7:0] $end
$var reg 8 *" outf1 [7:0] $end
$var reg 8 +" outf2 [7:0] $end
$var reg 8 ," outf3 [7:0] $end
$var reg 8 -" outp0 [7:0] $end
$var reg 8 ." outp1 [7:0] $end
$var reg 8 /" outp2 [7:0] $end
$var reg 8 0" outp3 [7:0] $end
$var reg 1 1 valid_outf0 $end
$var reg 1 0 valid_outf1 $end
$var reg 1 / valid_outf2 $end
$var reg 1 . valid_outf3 $end
$var reg 1 1" valid_outp0 $end
$var reg 1 2" valid_outp1 $end
$var reg 1 3" valid_outp2 $end
$var reg 1 4" valid_outp3 $end
$upscope $end
$scope module reloj $end
$var wire 1 ' rst $end
$var wire 1 , reloj_32f $end
$var reg 1 5" bandera $end
$var reg 5 6" counter2f [4:0] $end
$var reg 4 7" counter4f [3:0] $end
$var reg 6 8" counterf [5:0] $end
$var reg 1 7 reloj_2f $end
$var reg 1 6 reloj_4f $end
$var reg 1 5 reloj_f $end
$upscope $end
$upscope $end
$scope module probadorinst $end
$var wire 1 & salida_tx $end
$var reg 1 - IDLE $end
$var reg 1 , clk_32f $end
$var reg 8 9" in0 [7:0] $end
$var reg 8 :" in1 [7:0] $end
$var reg 8 ;" in2 [7:0] $end
$var reg 8 <" in3 [7:0] $end
$var reg 1 ' rst $end
$var reg 1 % selector_2f $end
$var reg 1 $ valid_in0 $end
$var reg 1 # valid_in1 $end
$var reg 1 " valid_in2 $end
$var reg 1 ! valid_in3 $end
$upscope $end
$upscope $end
$scope module mux_2to1_4bitsL1 $end
$var wire 8 =" in0 [7:0] $end
$var wire 8 >" in1 [7:0] $end
$var wire 1 ?" reset_L $end
$var wire 1 @" selector $end
$var wire 1 A" valid_bit0 $end
$var wire 1 B" valid_bit1 $end
$var wire 1 C" valid_bit_out $end
$var wire 8 D" data_out [7:0] $end
$var wire 1 E" bittemporal $end
$scope module mux1 $end
$var wire 4 F" in0 [3:0] $end
$var wire 4 G" in1 [3:0] $end
$var wire 1 ?" reset_L $end
$var wire 1 @" selector $end
$var wire 1 A" valid_bit0 $end
$var wire 1 B" valid_bit1 $end
$var reg 4 H" A [3:0] $end
$var reg 4 I" data_out [3:0] $end
$var reg 1 C" valid_bit_out $end
$var reg 1 J" validotemporal $end
$upscope $end
$scope module mux2 $end
$var wire 4 K" in0 [3:0] $end
$var wire 4 L" in1 [3:0] $end
$var wire 1 ?" reset_L $end
$var wire 1 @" selector $end
$var wire 1 A" valid_bit0 $end
$var wire 1 B" valid_bit1 $end
$var reg 4 M" A [3:0] $end
$var reg 4 N" data_out [3:0] $end
$var reg 1 E" valid_bit_out $end
$var reg 1 O" validotemporal $end
$upscope $end
$upscope $end
$scope module mux_conductualL1 $end
$var wire 4 P" in0 [3:0] $end
$var wire 4 Q" in1 [3:0] $end
$var wire 1 R" reset_L $end
$var wire 1 S" selector $end
$var wire 1 T" valid_bit0 $end
$var wire 1 U" valid_bit1 $end
$var reg 4 V" A [3:0] $end
$var reg 4 W" data_out [3:0] $end
$var reg 1 X" valid_bit_out $end
$var reg 1 Y" validotemporal $end
$upscope $end
$enddefinitions $end
#0
$dumpvars
zY"
zX"
b0 W"
b0 V"
zU"
zT"
zS"
zR"
bz Q"
bz P"
1O"
b0 N"
b0 M"
bz L"
bz K"
1J"
b0 I"
b0 H"
bz G"
bz F"
1E"
b0 D"
1C"
zB"
zA"
z@"
z?"
bz >"
bz ="
b0 <"
b0 ;"
b0 :"
b0 9"
bx 8"
bx 7"
bx 6"
x5"
04"
03"
02"
01"
b0 0"
b0 /"
b0 ."
b0 -"
bx ,"
bx +"
bx *"
bx )"
bx ("
bx '"
bx &"
bx %"
b10111100 $"
bx #"
b0 ""
1!"
b0 ~
b0 }
b0 |
b0 {
1z
b0 y
b0 x
b0 w
b0 v
1u
b0 t
b0 s
b0 r
b0 q
zp
b0 o
b0 n
xm
b0 l
bx k
bx j
bx i
xh
b0 g
bx f
bx e
bx d
xc
b0 b
bx a
bx `
x_
b0 ^
bx ]
bx \
bx [
xZ
b0 Y
bx X
bx W
bx V
xU
b0 T
bx S
bx R
b0 Q
b0 P
bx O
bx N
bx M
bx L
zK
xJ
xI
xH
xG
bx F
bx E
bx D
bx C
b0 B
b0 A
b0 @
b0 ?
b0 >
b0 =
b0 <
bx ;
bx :
bx 9
bx 8
x7
x6
x5
14
x3
x2
x1
x0
x/
x.
1-
0,
b0 +
b0 *
b0 )
b0 (
0'
x&
0%
0$
0#
0"
0!
$end
#2000
13
1U
12
1c
1Z
b0 X
1_
b0 ]
1h
b0 f
1m
b0 k
1z
1!"
05
07
06
b0 8"
b0 6"
b0 7"
b0 #"
0&
05"
1,
#4000
0,
#6000
1,
#8000
0,
#10000
b0 $"
1'
1,
#12000
0,
#14000
b0 j
b0 e
b0 i
b0 d
b0 \
b0 W
b0 [
b0 V
0.
b0 8
b0 L
b0 `
b0 ,"
0/
b0 9
b0 M
b0 a
b0 +"
00
b0 :
b0 N
b0 R
b0 *"
01
b0 ;
b0 O
b0 S
b0 )"
0J
0I
0H
0G
b0 F
b0 ("
b0 E
b0 '"
b0 D
b0 &"
b0 C
b0 %"
1Z
1_
1h
1m
1z
1!"
b1 #"
b1 8"
b1 6"
b1 7"
15
17
16
15"
1,
#16000
0,
#18000
b10 8"
b10 6"
b10 7"
b10 #"
1,
#20000
0,
#22000
b11 #"
b11 8"
b11 6"
b11 7"
1,
#24000
0,
#26000
b100 8"
b100 6"
b100 7"
b100 #"
1,
#28000
0,
#30000
b101 #"
b101 8"
b101 6"
06
b1 7"
1,
#32000
0,
#34000
b110 8"
b110 6"
b10 7"
b110 #"
1,
#36000
0,
#38000
b111 #"
b111 8"
b111 6"
b11 7"
1,
#40000
0,
#42000
b1000 8"
b1000 6"
b100 7"
b0 #"
1,
#44000
0,
#46000
1z
1!"
b1 #"
b1001 8"
07
b1 6"
16
b1 7"
1,
#48000
0,
#50000
b1010 8"
b10 6"
b10 7"
b10 #"
b11111111 (
b11111111 <
b11111111 <"
b10111010 )
b10111010 =
b10111010 ;"
b11111010 *
b11111010 >
b11111010 :"
b11111111 +
b11111111 ?
b11111111 9"
1!
1"
1#
1$
1,
#52000
0,
#54000
b11 #"
b1011 8"
b11 6"
b11 7"
1,
#56000
0,
#58000
b1100 8"
b100 6"
b100 7"
b100 #"
1,
#60000
0,
#62000
b101 #"
b1101 8"
b101 6"
06
b1 7"
1,
#64000
0,
1%
#66000
b1110 8"
b110 6"
b10 7"
b110 #"
1,
#68000
0,
#70000
b111 #"
b1111 8"
b111 6"
b11 7"
1,
#72000
0,
#74000
b10000 8"
b1000 6"
b100 7"
b0 #"
1,
#76000
0,
#78000
1Z
1_
1h
1m
1z
1!"
b1 #"
05
b1 8"
17
b1 6"
16
b1 7"
1,
#80000
0,
#82000
b10 8"
b10 6"
b10 7"
b10 #"
1,
#84000
0,
#86000
b11 #"
b11 8"
b11 6"
b11 7"
1,
#88000
0,
#90000
b100 8"
b100 6"
b100 7"
b100 #"
1,
#92000
0,
#94000
b101 #"
b101 8"
b101 6"
06
b1 7"
1,
#96000
0,
#98000
b110 8"
b110 6"
b10 7"
b110 #"
b0 (
b0 <
b0 <"
b0 )
b0 =
b0 ;"
b0 *
b0 >
b0 :"
b0 +
b0 ?
b0 9"
1,
#100000
0,
#102000
b111 #"
b111 8"
b111 6"
b11 7"
1,
#104000
0,
#106000
b1000 8"
b1000 6"
b100 7"
b0 #"
1,
#108000
0,
#110000
1z
1!"
b1 #"
b1001 8"
07
b1 6"
16
b1 7"
1,
#112000
0,
#114000
b1010 8"
b10 6"
b10 7"
b10 #"
1,
#116000
0,
#118000
b11 #"
b1011 8"
b11 6"
b11 7"
1,
#120000
0,
#122000
b1100 8"
b100 6"
b100 7"
b100 #"
1,
#124000
0,
#126000
b101 #"
b1101 8"
b101 6"
06
b1 7"
1,
#128000
0,
0%
#130000
b1110 8"
b110 6"
b10 7"
b110 #"
1,
#132000
0,
#134000
b111 #"
b1111 8"
b111 6"
b11 7"
1,
#136000
0,
#138000
b10000 8"
b1000 6"
b100 7"
b0 #"
1,
#140000
0,
#142000
1.
1/
10
11
1J
1I
1H
1G
1Z
1_
1h
1m
1z
1!"
b1 #"
15
b1 8"
17
b1 6"
16
b1 7"
1,
#144000
0,
#146000
b10 8"
b10 6"
b10 7"
b10 #"
b11111111 (
b11111111 <
b11111111 <"
b10111010 )
b10111010 =
b10111010 ;"
b11111010 *
b11111010 >
b11111010 :"
b11111111 +
b11111111 ?
b11111111 9"
1,
#148000
0,
#150000
b11 #"
b11 8"
b11 6"
b11 7"
1,
#152000
0,
#154000
b100 8"
b100 6"
b100 7"
b100 #"
1,
#156000
0,
#158000
b101 #"
b101 8"
b101 6"
06
b1 7"
1,
#160000
0,
#162000
b110 8"
b110 6"
b10 7"
b110 #"
1,
#164000
0,
#166000
b111 #"
b111 8"
b111 6"
b11 7"
1,
#168000
0,
#170000
b1000 8"
b1000 6"
b100 7"
b0 #"
1,
#172000
0,
#174000
1z
1!"
b1 #"
b1001 8"
07
b1 6"
16
b1 7"
1,
#176000
0,
#178000
b1010 8"
b10 6"
b10 7"
b10 #"
1,
#180000
0,
#182000
b11 #"
b1011 8"
b11 6"
b11 7"
1,
#184000
0,
#186000
b1100 8"
b100 6"
b100 7"
b100 #"
1,
#188000
0,
#190000
b101 #"
b1101 8"
b101 6"
06
b1 7"
1,
#192000
0,
1%
#194000
b1110 8"
b110 6"
b10 7"
b110 #"
1,
#196000
0,
#198000
b111 #"
b1111 8"
b111 6"
b11 7"
1,
#200000
0,
#202000
b10000 8"
b1000 6"
b100 7"
b0 #"
1,
#204000
0,
#206000
1Z
1_
1h
1m
1z
1!"
b1 #"
05
b1 8"
17
b1 6"
16
b1 7"
1,
#208000
0,
#210000
b10 8"
b10 6"
b10 7"
b10 #"
1,
#212000
0,
#214000
b11 #"
b11 8"
b11 6"
b11 7"
1,
#216000
0,
#218000
b100 8"
b100 6"
b100 7"
b100 #"
1,
#220000
0,
#222000
b101 #"
b101 8"
b101 6"
06
b1 7"
1,
#224000
0,
#226000
b110 8"
b110 6"
b10 7"
b110 #"
1,
#228000
0,
#230000
b111 #"
b111 8"
b111 6"
b11 7"
1,
#232000
0,
#234000
b1000 8"
b1000 6"
b100 7"
b0 #"
1,
#236000
0,
#238000
1z
1!"
b1 #"
b1001 8"
07
b1 6"
16
b1 7"
1,
#240000
0,
#242000
b1010 8"
b10 6"
b10 7"
b10 #"
1,
#244000
0,
#246000
b11 #"
b1011 8"
b11 6"
b11 7"
1,
#248000
0,
#250000
b1100 8"
b100 6"
b100 7"
b100 #"
1,
#252000
0,
#254000
b101 #"
b1101 8"
b101 6"
06
b1 7"
1,
#256000
0,
0%
#258000
b1110 8"
b110 6"
b10 7"
b110 #"
1,
#260000
0,
#262000
b111 #"
b1111 8"
b111 6"
b11 7"
1,
#264000
0,
#266000
b10000 8"
b1000 6"
b100 7"
b0 #"
1,
#268000
0,
#270000
b11111111 $"
b1111 ~
b11111111 @
b11111111 q
b11111111 t
b11111111 ""
b1111 y
b1111 }
b1111 x
b1111 |
b1111 w
b1111 {
b1010 v
b1111 l
b11111111 A
b11111111 P
b11111111 b
b11111111 o
b11111111 s
b1111 g
b1111 ^
b11111010 B
b11111010 Q
b11111010 T
b11111010 n
b11111010 r
b1010 Y
b1111 k
b1111 f
b1111 ]
b1010 X
b1111 j
b1111 e
b1011 i
b1010 d
b1111 \
b1010 W
b1111 [
b1111 V
b11111111 8
b11111111 L
b11111111 `
b11111111 ,"
b10111010 9
b10111010 M
b10111010 a
b10111010 +"
b11111010 :
b11111010 N
b11111010 R
b11111010 *"
b11111111 ;
b11111111 O
b11111111 S
b11111111 )"
b11111111 F
b11111111 ("
b10111010 E
b10111010 '"
b11111010 D
b11111010 &"
b11111111 C
b11111111 %"
1Z
1_
1h
1m
1z
1!"
b1 #"
15
b1 8"
17
b1 6"
16
b1 7"
1,
#272000
0,
#274000
b10 8"
b10 6"
b10 7"
b10 #"
1&
1,
#276000
0,
#278000
b11 #"
b11 8"
b11 6"
b11 7"
1,
#280000
0,
#282000
b100 8"
b100 6"
b100 7"
b100 #"
1,
#284000
0,
#286000
b101 #"
b101 8"
b101 6"
06
b1 7"
1,
#288000
0,
#290000
b110 8"
b110 6"
b10 7"
b110 #"
1,
#292000
0,
#294000
b111 #"
b111 8"
b111 6"
b11 7"
1,
#296000
0,
#298000
b1000 8"
b1000 6"
b100 7"
b0 #"
1,
#300000
0,
#302000
b11111010 $"
b11111010 @
b11111010 q
b11111010 t
b11111010 ""
b1010 y
1z
b1010 x
1!"
b1111 }
b1 #"
b1001 8"
07
b1 6"
16
b1 7"
1,
#304000
0,
#306000
b1010 8"
b10 6"
b10 7"
b10 #"
1,
#308000
0,
#310000
b11 #"
b1011 8"
b11 6"
b11 7"
1,
#312000
0,
#314000
b1100 8"
b100 6"
b100 7"
b100 #"
1,
#316000
0,
#318000
b101 #"
b1101 8"
b101 6"
06
b1 7"
1,
#320000
0,
1%
#322000
b1110 8"
b110 6"
b10 7"
b110 #"
0&
1,
#324000
0,
#326000
b111 #"
1&
b1111 8"
b111 6"
b11 7"
1,
#328000
0,
#330000
b10000 8"
b1000 6"
b100 7"
b0 #"
0&
1,
#332000
0,
#334000
b1011 ~
b1111 v
b1010 w
b1011 |
b10111010 $"
b11111111 B
b11111111 Q
b11111111 T
b11111111 n
b11111111 r
b1111 Y
b1010 g
b10111010 A
b10111010 P
b10111010 b
b10111010 o
b10111010 s
b1011 l
b10111010 @
b10111010 q
b10111010 t
b10111010 ""
b1010 y
1Z
b1111 X
1_
b1111 ]
1h
b1010 f
1m
b1011 k
1z
b1010 x
1!"
b1011 }
b1 #"
1&
05
b1 8"
17
b1 6"
16
b1 7"
1,
#336000
0,
#338000
b10 8"
b10 6"
b10 7"
b10 #"
0&
1,
#340000
0,
#342000
b11 #"
1&
b11 8"
b11 6"
b11 7"
1,
#344000
0,
#346000
b100 8"
b100 6"
b100 7"
b100 #"
1,
#348000
0,
#350000
b101 #"
b101 8"
b101 6"
06
b1 7"
1,
#352000
0,
#354000
b110 8"
b110 6"
b10 7"
b110 #"
0&
1,
#356000
0,
#358000
b111 #"
1&
b111 8"
b111 6"
b11 7"
1,
#360000
0,
#362000
b1000 8"
b1000 6"
b100 7"
b0 #"
0&
1,
#364000
0,
#366000
b11111111 $"
b1111 y
b11111111 @
b11111111 q
b11111111 t
b11111111 ""
b1111 ~
1z
b1111 x
1!"
b1111 }
b1 #"
1&
b1001 8"
07
b1 6"
16
b1 7"
1,
#368000
0,
#370000
b1010 8"
b10 6"
b10 7"
b10 #"
1,
#372000
0,
#374000
b11 #"
b1011 8"
b11 6"
b11 7"
1,
#376000
0,
#378000
b1100 8"
b100 6"
b100 7"
b100 #"
1,
#380000
0,
#382000
b101 #"
b1101 8"
b101 6"
06
b1 7"
1,
#384000
0,
0%
#386000
b1110 8"
b110 6"
b10 7"
b110 #"
1,
#388000
0,
#390000
b111 #"
b1111 8"
b111 6"
b11 7"
1,
#392000
0,
#394000
b10000 8"
b1000 6"
b100 7"
b0 #"
1,
#396000
0,
#398000
b1010 v
b1111 w
b1111 |
b11111111 $"
b11111010 B
b11111010 Q
b11111010 T
b11111010 n
b11111010 r
b1010 Y
b1111 g
b11111111 A
b11111111 P
b11111111 b
b11111111 o
b11111111 s
b1111 l
b1111 y
b11111111 @
b11111111 q
b11111111 t
b11111111 ""
b1111 ~
1Z
b1010 X
1_
b1111 ]
1h
b1111 f
1m
b1111 k
1z
b1111 x
1!"
b1111 }
b1 #"
15
b1 8"
17
b1 6"
16
b1 7"
1,
#400000
0,
#402000
b10 8"
b10 6"
b10 7"
b10 #"
1,
#404000
0,
#406000
b11 #"
b11 8"
b11 6"
b11 7"
1,
#408000
0,
#410000
b100 8"
b100 6"
b100 7"
b100 #"
1,
#412000
0,
#414000
b101 #"
b101 8"
b101 6"
06
b1 7"
1,
#416000
0,
#418000
b110 8"
b110 6"
b10 7"
b110 #"
1,
#420000
0,
#422000
b111 #"
b111 8"
b111 6"
b11 7"
1,
#424000
0,
#426000
b1000 8"
b1000 6"
b100 7"
b0 #"
1,
#428000
0,
#430000
b11111010 $"
b11111010 @
b11111010 q
b11111010 t
b11111010 ""
b1010 y
1z
b1010 x
1!"
b1111 }
b1 #"
b1001 8"
07
b1 6"
16
b1 7"
1,
#432000
0,
#434000
b1010 8"
b10 6"
b10 7"
b10 #"
1,
#436000
0,
#438000
b11 #"
b1011 8"
b11 6"
b11 7"
1,
#440000
0,
#442000
b1100 8"
b100 6"
b100 7"
b100 #"
1,
#444000
0,
#446000
b101 #"
b1101 8"
b101 6"
06
b1 7"
1,
#448000
0,
1%
#450000
b1110 8"
b110 6"
b10 7"
b110 #"
0&
1,
#452000
0,
#454000
b111 #"
1&
b1111 8"
b111 6"
b11 7"
1,
#456000
0,
#458000
b10000 8"
b1000 6"
b100 7"
b0 #"
0&
1,
#460000
0,
#462000
b1011 ~
b1111 v
b1010 w
b1011 |
b10111010 $"
b11111111 B
b11111111 Q
b11111111 T
b11111111 n
b11111111 r
b1111 Y
b1010 g
b10111010 A
b10111010 P
b10111010 b
b10111010 o
b10111010 s
b1011 l
b10111010 @
b10111010 q
b10111010 t
b10111010 ""
b1010 y
1Z
b1111 X
1_
b1111 ]
1h
b1010 f
1m
b1011 k
1z
b1010 x
1!"
b1011 }
b1 #"
1&
05
b1 8"
17
b1 6"
16
b1 7"
1,
#464000
0,
#466000
b10 8"
b10 6"
b10 7"
b10 #"
0&
1,
#468000
0,
#470000
b11 #"
1&
b11 8"
b11 6"
b11 7"
1,
#472000
0,
#474000
b100 8"
b100 6"
b100 7"
b100 #"
1,
#476000
0,
#478000
b101 #"
b101 8"
b101 6"
06
b1 7"
1,
#480000
0,
#482000
b110 8"
b110 6"
b10 7"
b110 #"
0&
1,
#484000
0,
#486000
b111 #"
1&
b111 8"
b111 6"
b11 7"
1,
#488000
0,
#490000
b1000 8"
b1000 6"
b100 7"
b0 #"
0&
1,
#492000
0,
#494000
b11111111 $"
b1111 y
b11111111 @
b11111111 q
b11111111 t
b11111111 ""
b1111 ~
1z
b1111 x
1!"
b1111 }
b1 #"
1&
b1001 8"
07
b1 6"
16
b1 7"
1,
#496000
0,
#498000
b1010 8"
b10 6"
b10 7"
b10 #"
1,
#500000
0,
#502000
b11 #"
b1011 8"
b11 6"
b11 7"
1,
#504000
0,
#506000
b1100 8"
b100 6"
b100 7"
b100 #"
1,
#508000
0,
#510000
b101 #"
b1101 8"
b101 6"
06
b1 7"
1,
#512000
0,
0%
#514000
b1110 8"
b110 6"
b10 7"
b110 #"
1,
#516000
0,
#518000
b111 #"
b1111 8"
b111 6"
b11 7"
1,
#520000
0,
#522000
b10000 8"
b1000 6"
b100 7"
b0 #"
1,
#524000
0,
#526000
b1010 v
b1111 w
b1111 |
b11111111 $"
b11111010 B
b11111010 Q
b11111010 T
b11111010 n
b11111010 r
b1010 Y
b1111 g
b11111111 A
b11111111 P
b11111111 b
b11111111 o
b11111111 s
b1111 l
b1111 y
b11111111 @
b11111111 q
b11111111 t
b11111111 ""
b1111 ~
1Z
b1010 X
1_
b1111 ]
1h
b1111 f
1m
b1111 k
1z
b1111 x
1!"
b1111 }
b1 #"
15
b1 8"
17
b1 6"
16
b1 7"
1,
#528000
0,
#530000
b10 8"
b10 6"
b10 7"
b10 #"
1,
#532000
0,
#534000
b11 #"
b11 8"
b11 6"
b11 7"
1,
#536000
0,
#538000
b100 8"
b100 6"
b100 7"
b100 #"
1,
#540000
0,
#542000
b101 #"
b101 8"
b101 6"
06
b1 7"
1,
#544000
0,
#546000
b110 8"
b110 6"
b10 7"
b110 #"
1,
#548000
0,
#550000
b111 #"
b111 8"
b111 6"
b11 7"
1,
#552000
0,
#554000
b1000 8"
b1000 6"
b100 7"
b0 #"
1,
#556000
0,
#558000
b11111010 $"
b11111010 @
b11111010 q
b11111010 t
b11111010 ""
b1010 y
1z
b1010 x
1!"
b1111 }
b1 #"
b1001 8"
07
b1 6"
16
b1 7"
1,
#560000
0,
#562000
b1010 8"
b10 6"
b10 7"
b10 #"
1,
#564000
0,
#566000
b11 #"
b1011 8"
b11 6"
b11 7"
1,
#568000
0,
#570000
b1100 8"
b100 6"
b100 7"
b100 #"
1,
#572000
0,
#574000
b101 #"
b1101 8"
b101 6"
06
b1 7"
1,
#576000
0,
1%
#578000
b1110 8"
b110 6"
b10 7"
b110 #"
0&
1,
#580000
0,
#582000
b111 #"
1&
b1111 8"
b111 6"
b11 7"
1,
#584000
0,
#586000
b10000 8"
b1000 6"
b100 7"
b0 #"
0&
1,
#588000
0,
#590000
b1011 ~
b1111 v
b1010 w
b1011 |
b10111010 $"
b11111111 B
b11111111 Q
b11111111 T
b11111111 n
b11111111 r
b1111 Y
b1010 g
b10111010 A
b10111010 P
b10111010 b
b10111010 o
b10111010 s
b1011 l
b10111010 @
b10111010 q
b10111010 t
b10111010 ""
b1010 y
1Z
b1111 X
1_
b1111 ]
1h
b1010 f
1m
b1011 k
1z
b1010 x
1!"
b1011 }
b1 #"
1&
05
b1 8"
17
b1 6"
16
b1 7"
1,
#592000
0,
#594000
b10 8"
b10 6"
b10 7"
b10 #"
0&
1,
#596000
0,
#598000
b11 #"
1&
b11 8"
b11 6"
b11 7"
1,
#600000
0,
#602000
b100 8"
b100 6"
b100 7"
b100 #"
1,
#604000
0,
#606000
b101 #"
b101 8"
b101 6"
06
b1 7"
1,
#608000
0,
#610000
b110 8"
b110 6"
b10 7"
b110 #"
0&
1,
#612000
0,
#614000
b111 #"
1&
b111 8"
b111 6"
b11 7"
1,
#616000
0,
#618000
b1000 8"
b1000 6"
b100 7"
b0 #"
0&
1,
#620000
0,
#622000
b11111111 $"
b1111 y
b11111111 @
b11111111 q
b11111111 t
b11111111 ""
b1111 ~
1z
b1111 x
1!"
b1111 }
b1 #"
1&
b1001 8"
07
b1 6"
16
b1 7"
1,
#624000
0,
#626000
b1010 8"
b10 6"
b10 7"
b10 #"
1,
#628000
0,
#630000
b11 #"
b1011 8"
b11 6"
b11 7"
1,
#632000
0,
#634000
b1100 8"
b100 6"
b100 7"
b100 #"
1,
#636000
0,
#638000
b101 #"
b1101 8"
b101 6"
06
b1 7"
1,
#640000
0,
0%
#642000
b1110 8"
b110 6"
b10 7"
b110 #"
1,
#644000
0,
#646000
b111 #"
b1111 8"
b111 6"
b11 7"
1,
#648000
0,
#650000
b10000 8"
b1000 6"
b100 7"
b0 #"
1,
#652000
0,
